%!PS-Adobe-2.0 EPSF-1.2
%%Creator: MATLAB, The MathWorks, Inc. Version 7.14.0.739 (R2012a). Operating System: Linux 3.0.0-16-generic #29-Ubuntu SMP Tue Feb 14 12:49:42 UTC 2012 i686.
%%Title: ./results/toyPredictionPITC4.eps
%%CreationDate: 04/16/2012  18:23:25
%%DocumentNeededFonts: Helvetica
%%DocumentProcessColors: Cyan Magenta Yellow Black
%%Extensions: CMYK
%%Pages: 1
%%BoundingBox:    72   210   548   592
%%EndComments

%%BeginProlog
% MathWorks dictionary
/MathWorks 160 dict begin
% definition operators
/bdef {bind def} bind def
/ldef {load def} bind def
/xdef {exch def} bdef
/xstore {exch store} bdef
% operator abbreviations
/c  /clip ldef
/cc /concat ldef
/cp /closepath ldef
/gr /grestore ldef
/gs /gsave ldef
/mt /moveto ldef
/np /newpath ldef
/cm /currentmatrix ldef
/sm /setmatrix ldef
/rm /rmoveto ldef
/rl /rlineto ldef
/s {show newpath} bdef
/sc {setcmykcolor} bdef
/sr /setrgbcolor ldef
/sg /setgray ldef
/w /setlinewidth ldef
/j /setlinejoin ldef
/cap /setlinecap ldef
/rc {rectclip} bdef
/rf {rectfill} bdef
% page state control
/pgsv () def
/bpage {/pgsv save def} bdef
/epage {pgsv restore} bdef
/bplot /gsave ldef
/eplot {stroke grestore} bdef
% orientation switch
/portraitMode 0 def /landscapeMode 1 def /rotateMode 2 def
% coordinate system mappings
/dpi2point 0 def
% font control
/FontSize 0 def
/FMS {/FontSize xstore findfont [FontSize 0 0 FontSize neg 0 0]
  makefont setfont} bdef
/reencode {exch dup where {pop load} {pop StandardEncoding} ifelse
  exch dup 3 1 roll findfont dup length dict begin
  { 1 index /FID ne {def}{pop pop} ifelse } forall
  /Encoding exch def currentdict end definefont pop} bdef
/isroman {findfont /CharStrings get /Agrave known} bdef
/FMSR {3 1 roll 1 index dup isroman {reencode} {pop pop} ifelse
  exch FMS} bdef
/csm {1 dpi2point div -1 dpi2point div scale neg translate
 dup landscapeMode eq {pop -90 rotate}
  {rotateMode eq {90 rotate} if} ifelse} bdef
% line types: solid, dotted, dashed, dotdash
/SO { [] 0 setdash } bdef
/DO { [.5 dpi2point mul 4 dpi2point mul] 0 setdash } bdef
/DA { [6 dpi2point mul] 0 setdash } bdef
/DD { [.5 dpi2point mul 4 dpi2point mul 6 dpi2point mul 4
  dpi2point mul] 0 setdash } bdef
% macros for lines and objects
/L {lineto stroke} bdef
/MP {3 1 roll moveto 1 sub {rlineto} repeat} bdef
/AP {{rlineto} repeat} bdef
/PDlw -1 def
/W {/PDlw currentlinewidth def setlinewidth} def
/PP {closepath eofill} bdef
/DP {closepath stroke} bdef
/MR {4 -2 roll moveto dup  0 exch rlineto exch 0 rlineto
  neg 0 exch rlineto closepath} bdef
/FR {MR stroke} bdef
/PR {MR fill} bdef
/L1i {{currentfile picstr readhexstring pop} image} bdef
/tMatrix matrix def
/MakeOval {newpath tMatrix currentmatrix pop translate scale
0 0 1 0 360 arc tMatrix setmatrix} bdef
/FO {MakeOval stroke} bdef
/PO {MakeOval fill} bdef
/PD {currentlinewidth 2 div 0 360 arc fill
   PDlw -1 eq not {PDlw w /PDlw -1 def} if} def
/FA {newpath tMatrix currentmatrix pop translate scale
  0 0 1 5 -2 roll arc tMatrix setmatrix stroke} bdef
/PA {newpath tMatrix currentmatrix pop	translate 0 0 moveto scale
  0 0 1 5 -2 roll arc closepath tMatrix setmatrix fill} bdef
/FAn {newpath tMatrix currentmatrix pop translate scale
  0 0 1 5 -2 roll arcn tMatrix setmatrix stroke} bdef
/PAn {newpath tMatrix currentmatrix pop translate 0 0 moveto scale
  0 0 1 5 -2 roll arcn closepath tMatrix setmatrix fill} bdef
/vradius 0 def /hradius 0 def /lry 0 def
/lrx 0 def /uly 0 def /ulx 0 def /rad 0 def
/MRR {/vradius xdef /hradius xdef /lry xdef /lrx xdef /uly xdef
  /ulx xdef newpath tMatrix currentmatrix pop ulx hradius add uly
  vradius add translate hradius vradius scale 0 0 1 180 270 arc 
  tMatrix setmatrix lrx hradius sub uly vradius add translate
  hradius vradius scale 0 0 1 270 360 arc tMatrix setmatrix
  lrx hradius sub lry vradius sub translate hradius vradius scale
  0 0 1 0 90 arc tMatrix setmatrix ulx hradius add lry vradius sub
  translate hradius vradius scale 0 0 1 90 180 arc tMatrix setmatrix
  closepath} bdef
/FRR {MRR stroke } bdef
/PRR {MRR fill } bdef
/MlrRR {/lry xdef /lrx xdef /uly xdef /ulx xdef /rad lry uly sub 2 div def
  newpath tMatrix currentmatrix pop ulx rad add uly rad add translate
  rad rad scale 0 0 1 90 270 arc tMatrix setmatrix lrx rad sub lry rad
  sub translate rad rad scale 0 0 1 270 90 arc tMatrix setmatrix
  closepath} bdef
/FlrRR {MlrRR stroke } bdef
/PlrRR {MlrRR fill } bdef
/MtbRR {/lry xdef /lrx xdef /uly xdef /ulx xdef /rad lrx ulx sub 2 div def
  newpath tMatrix currentmatrix pop ulx rad add uly rad add translate
  rad rad scale 0 0 1 180 360 arc tMatrix setmatrix lrx rad sub lry rad
  sub translate rad rad scale 0 0 1 0 180 arc tMatrix setmatrix
  closepath} bdef
/FtbRR {MtbRR stroke } bdef
/PtbRR {MtbRR fill } bdef
/stri 6 array def /dtri 6 array def
/smat 6 array def /dmat 6 array def
/tmat1 6 array def /tmat2 6 array def /dif 3 array def
/asub {/ind2 exch def /ind1 exch def dup dup
  ind1 get exch ind2 get sub exch } bdef
/tri_to_matrix {
  2 0 asub 3 1 asub 4 0 asub 5 1 asub
  dup 0 get exch 1 get 7 -1 roll astore } bdef
/compute_transform {
  dmat dtri tri_to_matrix tmat1 invertmatrix 
  smat stri tri_to_matrix tmat2 concatmatrix } bdef
/ds {stri astore pop} bdef
/dt {dtri astore pop} bdef
/db {2 copy /cols xdef /rows xdef mul dup 3 mul string
  currentfile exch readhexstring pop
  dup 0 3 index getinterval /rbmap xdef
  dup 2 index dup getinterval /gbmap xdef
  1 index dup 2 mul exch getinterval /bbmap xdef pop pop}bdef
/it {gs np dtri aload pop moveto lineto lineto cp c
  cols rows 8 compute_transform 
  rbmap gbmap bbmap true 3 colorimage gr}bdef
/il {newpath moveto lineto stroke}bdef
currentdict end def
%%EndProlog

%%BeginSetup
MathWorks begin

0 cap

end
%%EndSetup

%%Page: 1 1
%%BeginPageSetup
%%PageBoundingBox:    72   210   548   592
MathWorks begin
bpage
%%EndPageSetup

%%BeginObject: obj1
bplot

/dpi2point 12 def
portraitMode 0216 7344 csm

  659   240  5702  4577 MR c np
86 dict begin %Colortable dictionary
/c0 { 0.000000 0.000000 0.000000 sr} bdef
/c1 { 1.000000 1.000000 1.000000 sr} bdef
/c2 { 0.900000 0.000000 0.000000 sr} bdef
/c3 { 0.000000 0.820000 0.000000 sr} bdef
/c4 { 0.000000 0.000000 0.800000 sr} bdef
/c5 { 0.910000 0.820000 0.320000 sr} bdef
/c6 { 1.000000 0.260000 0.820000 sr} bdef
/c7 { 0.000000 0.820000 0.820000 sr} bdef
c0
1 j
1 sg
   0    0 6913 5186 PR
6 w
4 w
DO
SO
6 w
0 sg
 899 4615 mt 6255 4615 L
 899  389 mt 6255  389 L
 899 4615 mt  899  389 L
6255 4615 mt 6255  389 L
 899 4615 mt 6255 4615 L
 899 4615 mt  899  389 L
1441 4615 mt 1441 4561 L
1441  389 mt 1441  442 L
%%IncludeResource: font Helvetica
/Helvetica /ISOLatin1Encoding 180 FMSR

1287 4816 mt 
(-1) s
2500 4615 mt 2500 4561 L
2500  389 mt 2500  442 L
2271 4816 mt 
(-0.5) s
3559 4615 mt 3559 4561 L
3559  389 mt 3559  442 L
3509 4816 mt 
(0) s
4618 4615 mt 4618 4561 L
4618  389 mt 4618  442 L
4493 4816 mt 
(0.5) s
5678 4615 mt 5678 4561 L
5678  389 mt 5678  442 L
5628 4816 mt 
(1) s
 899 4615 mt  952 4615 L
6255 4615 mt 6201 4615 L
 659 4681 mt 
(-8) s
 899 4145 mt  952 4145 L
6255 4145 mt 6201 4145 L
 659 4211 mt 
(-6) s
 899 3675 mt  952 3675 L
6255 3675 mt 6201 3675 L
 659 3741 mt 
(-4) s
 899 3206 mt  952 3206 L
6255 3206 mt 6201 3206 L
 659 3272 mt 
(-2) s
 899 2736 mt  952 2736 L
6255 2736 mt 6201 2736 L
 764 2802 mt 
(0) s
 899 2267 mt  952 2267 L
6255 2267 mt 6201 2267 L
 764 2333 mt 
(2) s
 899 1797 mt  952 1797 L
6255 1797 mt 6201 1797 L
 764 1863 mt 
(4) s
 899 1328 mt  952 1328 L
6255 1328 mt 6201 1328 L
 764 1394 mt 
(6) s
 899  858 mt  952  858 L
6255  858 mt 6201  858 L
 764  924 mt 
(8) s
 899  389 mt  952  389 L
6255  389 mt 6201  389 L
 664  455 mt 
(10) s
 899 4615 mt 6255 4615 L
 899  389 mt 6255  389 L
 899 4615 mt  899  389 L
6255 4615 mt 6255  389 L
gs 899 389 5357 4227 MR c np
0.875 sg
27 75 28 66 28 56 27 47 28 40 28 33 27 27 28 18 
28 3 27 -17 28 -43 28 -70 27 -97 28 -123 28 -145 27 -163 
28 -175 28 -183 27 -186 28 -186 28 -178 28 -166 27 -145 28 -119 
28 -84 27 -43 28 0 28 42 27 80 28 110 28 131 27 144 
28 146 28 139 27 126 28 107 28 82 27 58 28 34 28 13 
27 -4 28 -13 28 -15 27 -9 28 7 28 29 27 55 28 81 
28 105 27 123 28 137 28 141 28 140 27 131 28 116 28 102 
27 87 28 82 28 81 27 79 28 71 28 53 27 32 28 7 
28 -16 27 -38 28 -55 28 -69 27 -77 28 -82 28 -83 27 -81 
28 -77 28 -73 27 -67 28 -63 28 -60 27 -57 28 -57 28 -58 
28 -60 27 -62 28 -65 28 -66 27 -66 28 -63 28 -55 27 -44 
28 -26 28 -4 27 19 28 41 28 60 27 74 28 81 28 83 
27 81 28 74 28 65 805 1663 100 MP
27 -64 28 -59 28 -47 28 -32 27 -13 28 7 28 28 27 47 
28 63 28 75 27 85 28 91 28 95 27 96 28 98 28 97 
27 96 28 94 28 89 27 82 28 73 28 61 27 46 28 27 
28 7 27 -16 28 -39 28 -61 27 -80 28 -95 28 -106 28 -111 
27 -112 28 -115 28 -118 27 -124 28 -128 28 -132 27 -129 28 -123 
28 -112 27 -100 28 -89 28 -82 27 -80 28 -81 28 -82 27 -83 
28 -80 28 -72 27 -56 28 -36 28 -12 27 15 28 38 28 61 
27 80 28 97 28 113 27 130 28 147 28 168 28 190 27 209 
28 218 28 217 27 208 28 192 28 174 27 154 28 133 28 112 
27 88 28 61 28 33 27 2 28 -27 28 -56 27 -83 28 -104 
28 -123 27 -135 28 -141 28 -143 27 -142 28 -139 28 -135 27 -127 
28 -116 28 -96 28 -69 27 -37 28 -2 28 27 27 51 28 70 
28 81 27 87 28 86 28 82 100 AP
-28 -64 -27 -34 -28 -3 -28 27 -27 53 -28 72 -28 86 -27 92 
-28 95 -28 98 -28 100 -27 104 -28 104 -28 101 -27 93 -28 82 
-28 69 -27 59 -28 50 -28 45 -27 41 -28 39 -28 36 -27 30 
-28 20 -28 5 -27 -14 -28 -39 -28 -66 -27 -93 -28 -118 -28 -139 
-27 -156 -28 -170 -28 -183 -27 -196 -28 -208 -28 -213 -28 -207 -27 -190 
-28 -164 -28 -133 -27 -99 -28 -66 -28 -36 -27 -10 -28 11 -28 28 
-27 44 -28 60 -28 76 -27 92 -28 107 -28 120 -27 129 -28 134 
-28 134 -27 130 -28 125 -28 121 -27 119 -28 120 -28 121 -27 118 
-28 109 -28 92 -27 65 -28 30 -28 -5 -28 -40 -27 -72 -28 -97 
-28 -119 -27 -133 -28 -144 -28 -148 -27 -148 -28 -143 -28 -137 -27 -126 
-28 -116 -28 -102 -27 -89 -28 -75 -28 -61 -27 -48 -28 -35 -28 -23 
-27 -13 -28 -5 -28 0 -27 1 -28 0 -28 -3 -27 -7 -28 -10 
-28 -12 -28 -11 -27 -8 0 1936 100 AP
-28 2 -28 3 -27 5 -28 7 -28 7 -27 4 -28 0 -28 -9 
-27 -19 -28 -28 -28 -36 -27 -38 -28 -38 -28 -33 -27 -25 -28 -17 
-28 -7 -27 2 -28 13 -28 21 -28 31 -27 40 -28 50 -28 60 
-27 73 -28 85 -28 99 -27 115 -28 130 -28 145 -27 159 -28 170 
-28 179 -27 181 -28 177 -28 167 -27 146 -28 117 -28 78 -27 28 
-28 -28 -28 -79 -27 -118 -28 -139 -28 -145 -27 -140 -28 -126 -28 -109 
-28 -88 -27 -69 -28 -53 -28 -43 -27 -40 -28 -43 -28 -52 -27 -64 
-28 -77 -28 -92 -27 -107 -28 -119 -28 -129 -27 -136 -28 -136 -28 -133 
-27 -122 -28 -108 -28 -89 -27 -66 -28 -41 -28 -16 -27 9 -28 33 
-28 54 -27 76 -28 96 -28 117 -27 139 -28 157 -28 171 -28 180 
-27 183 -28 179 -28 168 -27 152 -28 134 -28 113 -27 92 -28 70 
-28 46 -27 22 -28 -7 -28 -37 -27 -68 -28 -96 -28 -118 -27 -130 
-28 -134 -28 -127 -27 -113 -28 -90 100 AP
PP
24 w
0 -2063 -28 2 -28 3 -27 5 -28 7 -28 7 -27 4 -28 0 
-28 -9 -27 -19 -28 -28 -28 -36 -27 -38 -28 -38 -28 -33 -27 -25 
-28 -17 -28 -7 -27 2 -28 13 -28 21 -28 31 -27 40 -28 50 
-28 60 -27 73 -28 85 -28 99 -27 115 -28 130 -28 145 -27 159 
-28 170 -28 179 -27 181 -28 177 -28 167 -27 146 -28 117 -28 78 
-27 28 -28 -28 -28 -79 -27 -118 -28 -139 -28 -145 -27 -140 -28 -126 
-28 -109 -28 -88 -27 -69 -28 -53 -28 -43 -27 -40 -28 -43 -28 -52 
-27 -64 -28 -77 -28 -92 -27 -107 -28 -119 -28 -129 -27 -136 -28 -136 
-28 -133 -27 -122 -28 -108 -28 -89 -27 -66 -28 -41 -28 -16 -27 9 
-28 33 -28 54 -27 76 -28 96 -28 117 -27 139 -28 157 -28 171 
-28 180 -27 183 -28 179 -28 168 -27 152 -28 134 -28 113 -27 92 
-28 70 -28 46 -27 22 -28 -7 -28 -37 -27 -68 -28 -96 -28 -118 
-27 -130 -28 -134 -28 -127 3518 2915 100 MP stroke
-27 -113 -28 -90 -28 -64 -27 -34 -28 -3 -28 27 -27 53 -28 72 
-28 86 -27 92 -28 95 -28 98 -28 100 -27 104 -28 104 -28 101 
-27 93 -28 82 -28 69 -27 59 -28 50 -28 45 -27 41 -28 39 
-28 36 -27 30 -28 20 -28 5 -27 -14 -28 -39 -28 -66 -27 -93 
-28 -118 -28 -139 -27 -156 -28 -170 -28 -183 -27 -196 -28 -208 -28 -213 
-28 -207 -27 -190 -28 -164 -28 -133 -27 -99 -28 -66 -28 -36 -27 -10 
-28 11 -28 28 -27 44 -28 60 -28 76 -27 92 -28 107 -28 120 
-27 129 -28 134 -28 134 -27 130 -28 125 -28 121 -27 119 -28 120 
-28 121 -27 118 -28 109 -28 92 -27 65 -28 30 -28 -5 -28 -40 
-27 -72 -28 -97 -28 -119 -27 -133 -28 -144 -28 -148 -27 -148 -28 -143 
-28 -137 -27 -126 -28 -116 -28 -102 -27 -89 -28 -75 -28 -61 -27 -48 
-28 -35 -28 -23 -27 -13 -28 -5 -28 0 -27 1 -28 0 -28 -3 
-27 -7 -28 -10 -28 -12 6258 4043 100 MP stroke
-28 -11 -27 -8 0 1936 27 -64 28 -59 28 -47 28 -32 27 -13 
28 7 28 28 27 47 28 63 28 75 27 85 28 91 28 95 
27 96 28 98 28 97 27 96 28 94 28 89 27 82 28 73 
28 61 27 46 28 27 28 7 27 -16 28 -39 28 -61 27 -80 
28 -95 28 -106 28 -111 27 -112 28 -115 28 -118 27 -124 28 -128 
28 -132 27 -129 28 -123 28 -112 27 -100 28 -89 28 -82 27 -80 
28 -81 28 -82 27 -83 28 -80 28 -72 27 -56 28 -36 28 -12 
27 15 28 38 28 61 27 80 28 97 28 113 27 130 28 147 
28 168 28 190 27 209 28 218 28 217 27 208 28 192 28 174 
27 154 28 133 28 112 27 88 28 61 28 33 27 2 28 -27 
28 -56 27 -83 28 -104 28 -123 27 -135 28 -141 28 -143 27 -142 
28 -139 28 -135 27 -127 28 -116 28 -96 28 -69 27 -37 28 -2 
28 27 27 51 28 70 3656 2125 100 MP stroke
28 81 27 87 28 86 28 82 27 75 28 66 28 56 27 47 
28 40 28 33 27 27 28 18 28 3 27 -17 28 -43 28 -70 
27 -97 28 -123 28 -145 27 -163 28 -175 28 -183 27 -186 28 -186 
28 -178 28 -166 27 -145 28 -119 28 -84 27 -43 28 0 28 42 
27 80 28 110 28 131 27 144 28 146 28 139 27 126 28 107 
28 82 27 58 28 34 28 13 27 -4 28 -13 28 -15 27 -9 
28 7 28 29 27 55 28 81 28 105 27 123 28 137 28 141 
28 140 27 131 28 116 28 102 27 87 28 82 28 81 27 79 
28 71 28 53 27 32 28 7 28 -16 27 -38 28 -55 28 -69 
27 -77 28 -82 28 -83 27 -81 28 -77 28 -73 27 -67 28 -63 
28 -60 27 -57 28 -57 28 -58 28 -60 27 -62 28 -65 28 -66 
27 -66 28 -63 28 -55 27 -44 28 -26 28 -4 27 19 28 41 
28 60 27 74 28 81 916 1966 100 MP stroke
28 83 27 81 28 74 28 65 805 1663 5 MP stroke
0 sg
26 -17 28 -11 27 -3 28 5 28 14 27 23 28 32 28 40 
27 49 28 57 28 65 27 72 28 79 28 87 27 92 28 98 
28 102 27 105 28 104 28 103 27 96 28 88 28 75 27 59 
28 40 28 18 27 -4 28 -28 28 -50 28 -71 27 -88 28 -103 
28 -114 27 -121 28 -125 28 -125 27 -125 28 -122 28 -118 27 -115 
28 -112 28 -108 27 -104 28 -100 28 -95 27 -88 28 -78 28 -65 
27 -51 28 -32 28 -11 27 12 28 38 28 63 27 90 28 115 
28 138 27 160 28 177 28 190 28 199 27 203 28 201 28 193 
27 182 28 165 28 146 27 124 28 100 28 75 27 51 28 28 
28 6 27 -13 28 -32 28 -47 27 -62 28 -75 28 -87 27 -96 
28 -106 28 -112 27 -118 28 -120 28 -119 27 -116 28 -108 28 -96 
28 -83 27 -64 28 -44 28 -23 27 0 28 21 28 42 27 60 
28 75 28 87 27 94 3518 2314 100 MP stroke
28 96 28 95 27 89 28 78 28 65 27 48 28 27 28 5 
27 -19 28 -45 28 -70 27 -95 28 -118 28 -139 27 -157 28 -172 
28 -181 27 -184 28 -183 28 -175 28 -162 27 -142 28 -118 28 -90 
27 -59 28 -27 28 5 27 35 28 63 28 86 27 105 28 117 
28 124 27 124 28 120 28 109 27 97 28 82 28 65 27 52 
28 39 28 31 27 28 28 29 28 36 27 48 28 62 28 79 
27 96 28 112 28 125 28 133 27 136 28 131 28 120 27 103 
28 80 28 54 27 26 28 -4 28 -31 27 -58 28 -79 28 -97 
27 -110 28 -116 28 -120 27 -118 28 -114 28 -106 27 -98 28 -88 
28 -79 27 -70 28 -62 28 -54 27 -49 28 -44 28 -40 28 -36 
27 -32 28 -29 28 -25 27 -20 28 -15 28 -9 27 -2 28 5 
28 11 27 19 28 25 28 31 27 34 28 38 17 24 899 2813 96 MP stroke
6 w
gr

40 W
1441 3227 PD
40 W
1483 3144 PD
40 W
1517 3043 PD
40 W
1543 2828 PD
40 W
1551 2782 PD
40 W
1560 2734 PD
40 W
1577 2658 PD
40 W
1585 2543 PD
40 W
1611 2418 PD
40 W
1636 2042 PD
40 W
1645 2215 PD
40 W
1670 2045 PD
40 W
1704 1641 PD
40 W
1755 1371 PD
40 W
1772 1483 PD
40 W
1780 1387 PD
40 W
1797 1313 PD
40 W
1806 1271 PD
40 W
1814 1173 PD
40 W
1823 1358 PD
40 W
1916 1315 PD
40 W
1959 1432 PD
40 W
1967 1573 PD
40 W
1976 1538 PD
40 W
1993 1576 PD
40 W
2001 1757 PD
40 W
2044 1829 PD
40 W
2146 2518 PD
40 W
2154 2379 PD
40 W
2163 2555 PD
40 W
2180 2433 PD
40 W
2213 2596 PD
40 W
2247 2703 PD
40 W
2281 2681 PD
40 W
2315 2569 PD
40 W
2324 2556 PD
40 W
2341 2600 PD
40 W
2451 2983 PD
40 W
2460 2765 PD
40 W
2485 2845 PD
40 W
2502 2989 PD
40 W
2511 3056 PD
40 W
2519 3112 PD
40 W
2545 3118 PD
40 W
2579 3224 PD
40 W
2596 3326 PD
40 W
2604 3455 PD
40 W
2613 3431 PD
40 W
2621 3331 PD
40 W
2646 3749 PD
40 W
2672 3616 PD
40 W
2689 3797 PD
40 W
2706 3912 PD
40 W
2714 3868 PD
40 W
2731 3966 PD
40 W
2740 3882 PD
40 W
2748 4034 PD
40 W
2757 3975 PD
40 W
2774 4050 PD
40 W
2782 4066 PD
40 W
2816 4009 PD
40 W
2825 4064 PD
40 W
2842 4018 PD
40 W
2867 3843 PD
40 W
2901 3698 PD
40 W
2910 3666 PD
40 W
2918 3598 PD
40 W
3012 3088 PD
40 W
3020 2886 PD
40 W
3037 2716 PD
40 W
3046 2853 PD
40 W
3063 2579 PD
40 W
3071 2572 PD
40 W
3088 2630 PD
40 W
3105 2373 PD
40 W
3113 2289 PD
40 W
3139 2092 PD
40 W
3147 2268 PD
40 W
3207 1909 PD
40 W
3224 1747 PD
40 W
3258 1840 PD
40 W
3283 1833 PD
40 W
3317 1732 PD
40 W
3326 1893 PD
40 W
3343 1767 PD
40 W
3360 1932 PD
40 W
3368 1812 PD
40 W
3377 1806 PD
40 W
3470 2157 PD
40 W
3479 2180 PD
40 W
3496 2377 PD
40 W
3513 2478 PD
40 W
3530 2528 PD
40 W
3563 2330 PD
40 W
3572 2500 PD
40 W
3580 2526 PD
40 W
3589 2552 PD
40 W
3597 2575 PD
40 W
3614 2686 PD
40 W
3657 2800 PD
40 W
3699 2841 PD
40 W
3716 2810 PD
40 W
3725 2601 PD
40 W
3733 2834 PD
40 W
3759 2794 PD
40 W
3767 2635 PD
40 W
3793 2622 PD
40 W
3801 2672 PD
40 W
3810 2568 PD
40 W
3818 2557 PD
40 W
3827 2411 PD
40 W
3835 2416 PD
40 W
3852 2323 PD
40 W
3869 2366 PD
40 W
3878 2211 PD
40 W
3886 2038 PD
40 W
3895 2162 PD
40 W
3929 1890 PD
40 W
3937 2057 PD
40 W
3963 1806 PD
40 W
3971 1843 PD
40 W
3988 1688 PD
40 W
3997 1595 PD
40 W
4073 1518 PD
40 W
4098 1426 PD
40 W
4107 1332 PD
40 W
4141 1452 PD
40 W
4183 1183 PD
40 W
4209 1175 PD
40 W
4234 1194 PD
40 W
4251 1182 PD
40 W
4268 1196 PD
40 W
4277 1220 PD
40 W
4294 1255 PD
40 W
4302 1177 PD
40 W
4311 1028 PD
40 W
4319 1189 PD
40 W
4353 1373 PD
40 W
4370 1419 PD
40 W
4387 1368 PD
40 W
4421 1657 PD
40 W
4438 1657 PD
40 W
4455 1918 PD
40 W
4472 1921 PD
40 W
4480 2029 PD
40 W
4489 2046 PD
40 W
4497 2130 PD
40 W
4540 2467 PD
40 W
4548 2463 PD
40 W
4565 2588 PD
40 W
4591 2828 PD
40 W
4642 3063 PD
40 W
4650 3311 PD
40 W
4667 3347 PD
40 W
4676 3343 PD
40 W
4710 3496 PD
40 W
4752 3705 PD
40 W
4769 3750 PD
40 W
4778 3836 PD
40 W
4795 3849 PD
40 W
4888 3967 PD
40 W
4897 3776 PD
40 W
4905 3737 PD
40 W
4930 3718 PD
40 W
4947 3609 PD
40 W
4964 3717 PD
40 W
4998 3649 PD
40 W
5007 3579 PD
40 W
5024 3426 PD
40 W
5032 3353 PD
40 W
5058 3333 PD
40 W
5075 3321 PD
40 W
5092 3135 PD
40 W
5126 3024 PD
40 W
5134 3133 PD
40 W
5143 2967 PD
40 W
5151 2900 PD
40 W
5160 2952 PD
40 W
5168 3011 PD
40 W
5211 2723 PD
40 W
5236 2502 PD
40 W
5262 2502 PD
40 W
5270 2559 PD
40 W
5304 2389 PD
40 W
5313 2375 PD
40 W
5347 1980 PD
40 W
5389 1948 PD
40 W
5406 1801 PD
40 W
5414 1928 PD
40 W
5448 1786 PD
40 W
5474 1494 PD
40 W
5491 1593 PD
40 W
5499 1750 PD
40 W
5576 1568 PD
40 W
5584 1588 PD
40 W
5593 1803 PD
40 W
5635 1770 PD
40 W
5652 1840 PD
40 W
5661 1650 PD
40 W
5669 1925 PD
gs 899 389 5357 4227 MR c np
24 w
gr

24 w
2179 4181 mt 2263 4265 L
2263 4181 mt 2179 4265 L
gs 899 389 5357 4227 MR c np
gr

 995 4181 mt 1079 4265 L
1079 4181 mt  995 4265 L
gs 899 389 5357 4227 MR c np
gr

1880 4181 mt 1964 4265 L
1964 4181 mt 1880 4265 L
gs 899 389 5357 4227 MR c np
gr

2174 4181 mt 2258 4265 L
2258 4181 mt 2174 4265 L
gs 899 389 5357 4227 MR c np
gr

1878 4181 mt 1962 4265 L
1962 4181 mt 1878 4265 L
gs 899 389 5357 4227 MR c np
gr

2187 4181 mt 2271 4265 L
2271 4181 mt 2187 4265 L
gs 899 389 5357 4227 MR c np
gr

2262 4181 mt 2346 4265 L
2346 4181 mt 2262 4265 L
gs 899 389 5357 4227 MR c np
gr

2304 4181 mt 2388 4265 L
2388 4181 mt 2304 4265 L
gs 899 389 5357 4227 MR c np
gr

4332 4181 mt 4416 4265 L
4416 4181 mt 4332 4265 L
gs 899 389 5357 4227 MR c np
gr

3100 4181 mt 3184 4265 L
3184 4181 mt 3100 4265 L
gs 899 389 5357 4227 MR c np
gr

2744 4181 mt 2828 4265 L
2828 4181 mt 2744 4265 L
gs 899 389 5357 4227 MR c np
gr

3959 4181 mt 4043 4265 L
4043 4181 mt 3959 4265 L
gs 899 389 5357 4227 MR c np
gr

3717 4181 mt 3801 4265 L
3801 4181 mt 3717 4265 L
gs 899 389 5357 4227 MR c np
gr

2903 4181 mt 2987 4265 L
2987 4181 mt 2903 4265 L
gs 899 389 5357 4227 MR c np
gr

2331 4181 mt 2415 4265 L
2415 4181 mt 2331 4265 L
gs 899 389 5357 4227 MR c np
gr

4539 4181 mt 4623 4265 L
4623 4181 mt 4539 4265 L
gs 899 389 5357 4227 MR c np
gr

4539 4181 mt 4623 4265 L
4623 4181 mt 4539 4265 L
gs 899 389 5357 4227 MR c np
gr

4539 4181 mt 4623 4265 L
4623 4181 mt 4539 4265 L
gs 899 389 5357 4227 MR c np
gr

3332 4181 mt 3416 4265 L
3416 4181 mt 3332 4265 L
gs 899 389 5357 4227 MR c np
gr

4824 4181 mt 4908 4265 L
4908 4181 mt 4824 4265 L
gs 899 389 5357 4227 MR c np
gr

5425 4181 mt 5509 4265 L
5509 4181 mt 5425 4265 L
gs 899 389 5357 4227 MR c np
gr

3778 4181 mt 3862 4265 L
3862 4181 mt 3778 4265 L
gs 899 389 5357 4227 MR c np
gr

4540 4181 mt 4624 4265 L
4624 4181 mt 4540 4265 L
gs 899 389 5357 4227 MR c np
gr

4539 4181 mt 4623 4265 L
4623 4181 mt 4539 4265 L
gs 899 389 5357 4227 MR c np
gr

5110 4181 mt 5194 4265 L
5194 4181 mt 5110 4265 L
gs 899 389 5357 4227 MR c np
gr

5110 4181 mt 5194 4265 L
5194 4181 mt 5110 4265 L
gs 899 389 5357 4227 MR c np
gr

5211 4181 mt 5295 4265 L
5295 4181 mt 5211 4265 L
gs 899 389 5357 4227 MR c np
gr

5343 4181 mt 5427 4265 L
5427 4181 mt 5343 4265 L
gs 899 389 5357 4227 MR c np
gr

6124 4181 mt 6208 4265 L
6208 4181 mt 6124 4265 L
gs 899 389 5357 4227 MR c np
6 w
gr

6 w

end %%Color Dict

eplot
%%EndObject

epage
end

showpage

%%Trailer
%%EOF
