%!PS-Adobe-2.0 EPSF-1.2
%%Creator: MATLAB, The MathWorks, Inc. Version 7.14.0.739 (R2012a). Operating System: Linux 3.0.0-16-generic #29-Ubuntu SMP Tue Feb 14 12:49:42 UTC 2012 i686.
%%Title: ./results/toyPredictionPITC2.eps
%%CreationDate: 04/16/2012  18:23:24
%%DocumentNeededFonts: Helvetica
%%DocumentProcessColors: Cyan Magenta Yellow Black
%%Extensions: CMYK
%%Pages: 1
%%BoundingBox:    60   210   548   592
%%EndComments

%%BeginProlog
% MathWorks dictionary
/MathWorks 160 dict begin
% definition operators
/bdef {bind def} bind def
/ldef {load def} bind def
/xdef {exch def} bdef
/xstore {exch store} bdef
% operator abbreviations
/c  /clip ldef
/cc /concat ldef
/cp /closepath ldef
/gr /grestore ldef
/gs /gsave ldef
/mt /moveto ldef
/np /newpath ldef
/cm /currentmatrix ldef
/sm /setmatrix ldef
/rm /rmoveto ldef
/rl /rlineto ldef
/s {show newpath} bdef
/sc {setcmykcolor} bdef
/sr /setrgbcolor ldef
/sg /setgray ldef
/w /setlinewidth ldef
/j /setlinejoin ldef
/cap /setlinecap ldef
/rc {rectclip} bdef
/rf {rectfill} bdef
% page state control
/pgsv () def
/bpage {/pgsv save def} bdef
/epage {pgsv restore} bdef
/bplot /gsave ldef
/eplot {stroke grestore} bdef
% orientation switch
/portraitMode 0 def /landscapeMode 1 def /rotateMode 2 def
% coordinate system mappings
/dpi2point 0 def
% font control
/FontSize 0 def
/FMS {/FontSize xstore findfont [FontSize 0 0 FontSize neg 0 0]
  makefont setfont} bdef
/reencode {exch dup where {pop load} {pop StandardEncoding} ifelse
  exch dup 3 1 roll findfont dup length dict begin
  { 1 index /FID ne {def}{pop pop} ifelse } forall
  /Encoding exch def currentdict end definefont pop} bdef
/isroman {findfont /CharStrings get /Agrave known} bdef
/FMSR {3 1 roll 1 index dup isroman {reencode} {pop pop} ifelse
  exch FMS} bdef
/csm {1 dpi2point div -1 dpi2point div scale neg translate
 dup landscapeMode eq {pop -90 rotate}
  {rotateMode eq {90 rotate} if} ifelse} bdef
% line types: solid, dotted, dashed, dotdash
/SO { [] 0 setdash } bdef
/DO { [.5 dpi2point mul 4 dpi2point mul] 0 setdash } bdef
/DA { [6 dpi2point mul] 0 setdash } bdef
/DD { [.5 dpi2point mul 4 dpi2point mul 6 dpi2point mul 4
  dpi2point mul] 0 setdash } bdef
% macros for lines and objects
/L {lineto stroke} bdef
/MP {3 1 roll moveto 1 sub {rlineto} repeat} bdef
/AP {{rlineto} repeat} bdef
/PDlw -1 def
/W {/PDlw currentlinewidth def setlinewidth} def
/PP {closepath eofill} bdef
/DP {closepath stroke} bdef
/MR {4 -2 roll moveto dup  0 exch rlineto exch 0 rlineto
  neg 0 exch rlineto closepath} bdef
/FR {MR stroke} bdef
/PR {MR fill} bdef
/L1i {{currentfile picstr readhexstring pop} image} bdef
/tMatrix matrix def
/MakeOval {newpath tMatrix currentmatrix pop translate scale
0 0 1 0 360 arc tMatrix setmatrix} bdef
/FO {MakeOval stroke} bdef
/PO {MakeOval fill} bdef
/PD {currentlinewidth 2 div 0 360 arc fill
   PDlw -1 eq not {PDlw w /PDlw -1 def} if} def
/FA {newpath tMatrix currentmatrix pop translate scale
  0 0 1 5 -2 roll arc tMatrix setmatrix stroke} bdef
/PA {newpath tMatrix currentmatrix pop	translate 0 0 moveto scale
  0 0 1 5 -2 roll arc closepath tMatrix setmatrix fill} bdef
/FAn {newpath tMatrix currentmatrix pop translate scale
  0 0 1 5 -2 roll arcn tMatrix setmatrix stroke} bdef
/PAn {newpath tMatrix currentmatrix pop translate 0 0 moveto scale
  0 0 1 5 -2 roll arcn closepath tMatrix setmatrix fill} bdef
/vradius 0 def /hradius 0 def /lry 0 def
/lrx 0 def /uly 0 def /ulx 0 def /rad 0 def
/MRR {/vradius xdef /hradius xdef /lry xdef /lrx xdef /uly xdef
  /ulx xdef newpath tMatrix currentmatrix pop ulx hradius add uly
  vradius add translate hradius vradius scale 0 0 1 180 270 arc 
  tMatrix setmatrix lrx hradius sub uly vradius add translate
  hradius vradius scale 0 0 1 270 360 arc tMatrix setmatrix
  lrx hradius sub lry vradius sub translate hradius vradius scale
  0 0 1 0 90 arc tMatrix setmatrix ulx hradius add lry vradius sub
  translate hradius vradius scale 0 0 1 90 180 arc tMatrix setmatrix
  closepath} bdef
/FRR {MRR stroke } bdef
/PRR {MRR fill } bdef
/MlrRR {/lry xdef /lrx xdef /uly xdef /ulx xdef /rad lry uly sub 2 div def
  newpath tMatrix currentmatrix pop ulx rad add uly rad add translate
  rad rad scale 0 0 1 90 270 arc tMatrix setmatrix lrx rad sub lry rad
  sub translate rad rad scale 0 0 1 270 90 arc tMatrix setmatrix
  closepath} bdef
/FlrRR {MlrRR stroke } bdef
/PlrRR {MlrRR fill } bdef
/MtbRR {/lry xdef /lrx xdef /uly xdef /ulx xdef /rad lrx ulx sub 2 div def
  newpath tMatrix currentmatrix pop ulx rad add uly rad add translate
  rad rad scale 0 0 1 180 360 arc tMatrix setmatrix lrx rad sub lry rad
  sub translate rad rad scale 0 0 1 0 180 arc tMatrix setmatrix
  closepath} bdef
/FtbRR {MtbRR stroke } bdef
/PtbRR {MtbRR fill } bdef
/stri 6 array def /dtri 6 array def
/smat 6 array def /dmat 6 array def
/tmat1 6 array def /tmat2 6 array def /dif 3 array def
/asub {/ind2 exch def /ind1 exch def dup dup
  ind1 get exch ind2 get sub exch } bdef
/tri_to_matrix {
  2 0 asub 3 1 asub 4 0 asub 5 1 asub
  dup 0 get exch 1 get 7 -1 roll astore } bdef
/compute_transform {
  dmat dtri tri_to_matrix tmat1 invertmatrix 
  smat stri tri_to_matrix tmat2 concatmatrix } bdef
/ds {stri astore pop} bdef
/dt {dtri astore pop} bdef
/db {2 copy /cols xdef /rows xdef mul dup 3 mul string
  currentfile exch readhexstring pop
  dup 0 3 index getinterval /rbmap xdef
  dup 2 index dup getinterval /gbmap xdef
  1 index dup 2 mul exch getinterval /bbmap xdef pop pop}bdef
/it {gs np dtri aload pop moveto lineto lineto cp c
  cols rows 8 compute_transform 
  rbmap gbmap bbmap true 3 colorimage gr}bdef
/il {newpath moveto lineto stroke}bdef
currentdict end def
%%EndProlog

%%BeginSetup
MathWorks begin

0 cap

end
%%EndSetup

%%Page: 1 1
%%BeginPageSetup
%%PageBoundingBox:    60   210   548   592
MathWorks begin
bpage
%%EndPageSetup

%%BeginObject: obj1
bplot

/dpi2point 12 def
portraitMode 0216 7344 csm

  509   240  5852  4577 MR c np
86 dict begin %Colortable dictionary
/c0 { 0.000000 0.000000 0.000000 sr} bdef
/c1 { 1.000000 1.000000 1.000000 sr} bdef
/c2 { 0.900000 0.000000 0.000000 sr} bdef
/c3 { 0.000000 0.820000 0.000000 sr} bdef
/c4 { 0.000000 0.000000 0.800000 sr} bdef
/c5 { 0.910000 0.820000 0.320000 sr} bdef
/c6 { 1.000000 0.260000 0.820000 sr} bdef
/c7 { 0.000000 0.820000 0.820000 sr} bdef
c0
1 j
1 sg
   0    0 6913 5186 PR
6 w
4 w
DO
SO
6 w
0 sg
 899 4615 mt 6255 4615 L
 899  389 mt 6255  389 L
 899 4615 mt  899  389 L
6255 4615 mt 6255  389 L
 899 4615 mt 6255 4615 L
 899 4615 mt  899  389 L
1441 4615 mt 1441 4561 L
1441  389 mt 1441  442 L
%%IncludeResource: font Helvetica
/Helvetica /ISOLatin1Encoding 180 FMSR

1287 4816 mt 
(-1) s
2500 4615 mt 2500 4561 L
2500  389 mt 2500  442 L
2271 4816 mt 
(-0.5) s
3559 4615 mt 3559 4561 L
3559  389 mt 3559  442 L
3509 4816 mt 
(0) s
4618 4615 mt 4618 4561 L
4618  389 mt 4618  442 L
4493 4816 mt 
(0.5) s
5678 4615 mt 5678 4561 L
5678  389 mt 5678  442 L
5628 4816 mt 
(1) s
 899 4615 mt  952 4615 L
6255 4615 mt 6201 4615 L
 509 4681 mt 
(-0.8) s
 899 4192 mt  952 4192 L
6255 4192 mt 6201 4192 L
 509 4258 mt 
(-0.6) s
 899 3769 mt  952 3769 L
6255 3769 mt 6201 3769 L
 509 3835 mt 
(-0.4) s
 899 3347 mt  952 3347 L
6255 3347 mt 6201 3347 L
 509 3413 mt 
(-0.2) s
 899 2924 mt  952 2924 L
6255 2924 mt 6201 2924 L
 764 2990 mt 
(0) s
 899 2502 mt  952 2502 L
6255 2502 mt 6201 2502 L
 614 2568 mt 
(0.2) s
 899 2079 mt  952 2079 L
6255 2079 mt 6201 2079 L
 614 2145 mt 
(0.4) s
 899 1656 mt  952 1656 L
6255 1656 mt 6201 1656 L
 614 1722 mt 
(0.6) s
 899 1234 mt  952 1234 L
6255 1234 mt 6201 1234 L
 614 1300 mt 
(0.8) s
 899  811 mt  952  811 L
6255  811 mt 6201  811 L
 764  877 mt 
(1) s
 899  389 mt  952  389 L
6255  389 mt 6201  389 L
 614  455 mt 
(1.2) s
 899 4615 mt 6255 4615 L
 899  389 mt 6255  389 L
 899 4615 mt  899  389 L
6255 4615 mt 6255  389 L
gs 899 389 5357 4227 MR c np
0.875 sg
27 -3 28 -6 28 -10 27 -16 28 -23 28 -30 27 -39 28 -47 
28 -56 27 -65 28 -74 28 -82 27 -89 28 -95 28 -101 27 -103 
28 -105 28 -104 27 -102 28 -96 28 -90 28 -82 27 -70 28 -60 
28 -46 27 -34 28 -20 28 -7 27 6 28 18 28 30 27 40 
28 48 28 57 27 63 28 68 28 74 27 77 28 80 28 83 
27 84 28 87 28 88 27 90 28 91 28 93 27 95 28 96 
28 97 27 99 28 100 28 100 28 99 27 99 28 96 28 93 
27 89 28 82 28 74 27 66 28 57 28 45 27 34 28 22 
28 10 27 -1 28 -14 28 -24 27 -35 28 -45 28 -54 27 -61 
28 -67 28 -72 27 -77 28 -80 28 -81 27 -82 28 -81 28 -80 
28 -77 27 -74 28 -69 28 -63 27 -56 28 -49 28 -40 27 -31 
28 -21 28 -10 27 -1 28 9 28 18 27 25 28 32 28 37 
27 40 28 42 28 42 805 1770 100 MP
27 -19 28 -12 28 -3 28 6 27 16 28 26 28 36 27 46 
28 55 28 62 27 69 28 73 28 77 27 77 28 77 28 75 
27 71 28 64 28 57 27 48 28 38 28 27 27 14 28 1 
28 -13 27 -26 28 -40 28 -54 27 -66 28 -78 28 -90 28 -99 
27 -107 28 -114 28 -119 27 -122 28 -123 28 -122 27 -121 28 -116 
28 -112 27 -107 28 -99 28 -91 27 -83 28 -72 28 -62 27 -49 
28 -37 28 -23 27 -8 28 7 28 22 27 37 28 53 28 69 
27 83 28 97 28 110 27 122 28 133 28 141 28 148 27 153 
28 154 28 154 27 151 28 145 28 136 27 126 28 113 28 98 
27 82 28 65 28 48 27 30 28 13 28 -3 27 -19 28 -33 
28 -46 27 -55 28 -63 28 -68 27 -71 28 -71 28 -70 27 -65 
28 -59 28 -52 28 -45 27 -37 28 -29 28 -21 27 -15 28 -9 
28 -6 27 -2 28 -1 28 -1 100 AP
-28 7 -27 13 -28 19 -28 27 -27 35 -28 41 -28 47 -27 53 
-28 57 -28 60 -28 62 -27 61 -28 61 -28 58 -27 54 -28 51 
-28 44 -27 38 -28 30 -28 22 -27 12 -28 1 -28 -9 -27 -22 
-28 -34 -28 -46 -27 -59 -28 -71 -28 -83 -27 -94 -28 -105 -28 -113 
-27 -122 -28 -128 -28 -133 -27 -135 -28 -136 -28 -134 -28 -130 -27 -124 
-28 -115 -28 -103 -27 -91 -28 -75 -28 -60 -27 -43 -28 -26 -28 -8 
-27 9 -28 25 -28 42 -27 55 -28 69 -28 80 -27 89 -28 95 
-28 100 -27 101 -28 99 -28 96 -27 89 -28 80 -28 71 -27 58 
-28 46 -28 32 -27 18 -28 5 -28 -10 -28 -23 -27 -35 -28 -48 
-28 -57 -27 -68 -28 -75 -28 -81 -27 -86 -28 -89 -28 -91 -27 -90 
-28 -90 -28 -86 -27 -82 -28 -78 -28 -73 -27 -67 -28 -61 -28 -55 
-27 -50 -28 -44 -28 -40 -27 -36 -28 -33 -28 -30 -27 -27 -28 -25 
-28 -22 -28 -20 -27 -17 0 2353 100 AP
-28 10 -28 9 -27 8 -28 8 -28 7 -27 4 -28 3 -28 2 
-27 -1 -28 -1 -28 -2 -27 0 -28 1 -28 6 -27 9 -28 16 
-28 23 -27 31 -28 40 -28 48 -28 58 -27 67 -28 76 -28 85 
-27 92 -28 99 -28 104 -27 110 -28 112 -28 114 -27 113 -28 112 
-28 108 -27 103 -28 95 -28 87 -27 76 -28 64 -28 52 -27 37 
-28 23 -28 7 -27 -8 -28 -24 -28 -39 -27 -54 -28 -68 -28 -80 
-28 -92 -27 -102 -28 -111 -28 -117 -27 -122 -28 -125 -28 -128 -27 -127 
-28 -127 -28 -124 -27 -119 -28 -113 -28 -106 -27 -98 -28 -87 -28 -76 
-27 -63 -28 -50 -28 -35 -27 -20 -28 -5 -28 10 -27 25 -28 39 
-28 54 -27 65 -28 77 -28 87 -27 94 -28 101 -28 104 -28 108 
-27 107 -28 107 -28 102 -27 98 -28 92 -28 83 -27 74 -28 64 
-28 54 -27 43 -28 32 -28 23 -27 15 -28 7 -28 2 -27 -2 
-28 -3 -28 -4 -27 -2 -28 2 100 AP
PP
24 w
0 -2382 -28 10 -28 9 -27 8 -28 8 -28 7 -27 4 -28 3 
-28 2 -27 -1 -28 -1 -28 -2 -27 0 -28 1 -28 6 -27 9 
-28 16 -28 23 -27 31 -28 40 -28 48 -28 58 -27 67 -28 76 
-28 85 -27 92 -28 99 -28 104 -27 110 -28 112 -28 114 -27 113 
-28 112 -28 108 -27 103 -28 95 -28 87 -27 76 -28 64 -28 52 
-27 37 -28 23 -28 7 -27 -8 -28 -24 -28 -39 -27 -54 -28 -68 
-28 -80 -28 -92 -27 -102 -28 -111 -28 -117 -27 -122 -28 -125 -28 -128 
-27 -127 -28 -127 -28 -124 -27 -119 -28 -113 -28 -106 -27 -98 -28 -87 
-28 -76 -27 -63 -28 -50 -28 -35 -27 -20 -28 -5 -28 10 -27 25 
-28 39 -28 54 -27 65 -28 77 -28 87 -27 94 -28 101 -28 104 
-28 108 -27 107 -28 107 -28 102 -27 98 -28 92 -28 83 -27 74 
-28 64 -28 54 -27 43 -28 32 -28 23 -27 15 -28 7 -28 2 
-27 -2 -28 -3 -28 -4 3518 2699 100 MP stroke
-27 -2 -28 2 -28 7 -27 13 -28 19 -28 27 -27 35 -28 41 
-28 47 -27 53 -28 57 -28 60 -28 62 -27 61 -28 61 -28 58 
-27 54 -28 51 -28 44 -27 38 -28 30 -28 22 -27 12 -28 1 
-28 -9 -27 -22 -28 -34 -28 -46 -27 -59 -28 -71 -28 -83 -27 -94 
-28 -105 -28 -113 -27 -122 -28 -128 -28 -133 -27 -135 -28 -136 -28 -134 
-28 -130 -27 -124 -28 -115 -28 -103 -27 -91 -28 -75 -28 -60 -27 -43 
-28 -26 -28 -8 -27 9 -28 25 -28 42 -27 55 -28 69 -28 80 
-27 89 -28 95 -28 100 -27 101 -28 99 -28 96 -27 89 -28 80 
-28 71 -27 58 -28 46 -28 32 -27 18 -28 5 -28 -10 -28 -23 
-27 -35 -28 -48 -28 -57 -27 -68 -28 -75 -28 -81 -27 -86 -28 -89 
-28 -91 -27 -90 -28 -90 -28 -86 -27 -82 -28 -78 -28 -73 -27 -67 
-28 -61 -28 -55 -27 -50 -28 -44 -28 -40 -27 -36 -28 -33 -28 -30 
-27 -27 -28 -25 -28 -22 6258 4438 100 MP stroke
-28 -20 -27 -17 0 2353 27 -19 28 -12 28 -3 28 6 27 16 
28 26 28 36 27 46 28 55 28 62 27 69 28 73 28 77 
27 77 28 77 28 75 27 71 28 64 28 57 27 48 28 38 
28 27 27 14 28 1 28 -13 27 -26 28 -40 28 -54 27 -66 
28 -78 28 -90 28 -99 27 -107 28 -114 28 -119 27 -122 28 -123 
28 -122 27 -121 28 -116 28 -112 27 -107 28 -99 28 -91 27 -83 
28 -72 28 -62 27 -49 28 -37 28 -23 27 -8 28 7 28 22 
27 37 28 53 28 69 27 83 28 97 28 110 27 122 28 133 
28 141 28 148 27 153 28 154 28 154 27 151 28 145 28 136 
27 126 28 113 28 98 27 82 28 65 28 48 27 30 28 13 
28 -3 27 -19 28 -33 28 -46 27 -55 28 -63 28 -68 27 -71 
28 -71 28 -70 27 -65 28 -59 28 -52 28 -45 27 -37 28 -29 
28 -21 27 -15 28 -9 3656 1635 100 MP stroke
28 -6 27 -2 28 -1 28 -1 27 -3 28 -6 28 -10 27 -16 
28 -23 28 -30 27 -39 28 -47 28 -56 27 -65 28 -74 28 -82 
27 -89 28 -95 28 -101 27 -103 28 -105 28 -104 27 -102 28 -96 
28 -90 28 -82 27 -70 28 -60 28 -46 27 -34 28 -20 28 -7 
27 6 28 18 28 30 27 40 28 48 28 57 27 63 28 68 
28 74 27 77 28 80 28 83 27 84 28 87 28 88 27 90 
28 91 28 93 27 95 28 96 28 97 27 99 28 100 28 100 
28 99 27 99 28 96 28 93 27 89 28 82 28 74 27 66 
28 57 28 45 27 34 28 22 28 10 27 -1 28 -14 28 -24 
27 -35 28 -45 28 -54 27 -61 28 -67 28 -72 27 -77 28 -80 
28 -81 27 -82 28 -81 28 -80 28 -77 27 -74 28 -69 28 -63 
27 -56 28 -49 28 -40 27 -31 28 -21 28 -10 27 -1 28 9 
28 18 27 25 28 32 916 1931 100 MP stroke
28 37 27 40 28 42 28 42 805 1770 5 MP stroke
0 sg
26 9 28 15 27 22 28 28 28 34 27 41 28 48 28 53 
27 59 28 65 28 68 27 73 28 75 28 76 27 76 28 76 
28 73 27 69 28 65 28 57 27 50 28 42 28 31 27 20 
28 9 28 -3 27 -15 28 -28 28 -40 28 -52 27 -63 28 -73 
28 -82 27 -90 28 -97 28 -101 27 -105 28 -106 28 -106 27 -103 
28 -100 28 -93 27 -86 28 -76 28 -65 27 -53 28 -39 28 -24 
27 -9 28 8 28 24 27 40 28 57 28 72 27 86 28 101 
28 112 27 123 28 131 28 138 28 142 27 144 28 144 28 141 
27 136 28 129 28 121 27 110 28 97 28 85 27 71 28 55 
28 41 27 26 28 11 28 -2 27 -16 28 -27 28 -38 27 -46 
28 -54 28 -59 27 -63 28 -65 28 -65 27 -63 28 -60 28 -57 
28 -50 27 -45 28 -38 28 -32 27 -24 28 -19 28 -12 27 -8 
28 -3 28 -2 27 0 3518 2173 100 MP stroke
28 -2 28 -3 27 -7 28 -12 28 -19 27 -27 28 -35 28 -44 
27 -54 28 -64 28 -73 27 -82 28 -89 28 -96 27 -100 28 -104 
28 -105 27 -105 28 -102 28 -97 28 -91 27 -83 28 -73 28 -62 
27 -49 28 -37 28 -23 27 -10 28 5 28 17 27 30 28 42 
28 53 27 63 28 72 28 80 27 88 28 93 28 98 27 102 
28 105 28 107 27 109 28 109 28 110 27 108 28 107 28 103 
27 101 28 96 28 90 28 84 27 76 28 68 28 58 27 49 
28 37 28 26 27 14 28 2 28 -9 27 -21 28 -32 28 -43 
27 -52 28 -61 28 -68 27 -74 28 -80 28 -82 27 -86 28 -86 
28 -85 27 -85 28 -82 28 -78 27 -75 28 -69 28 -65 28 -58 
27 -52 28 -46 28 -40 27 -33 28 -27 28 -21 27 -15 28 -9 
28 -5 27 0 28 4 28 7 27 10 28 13 17 9 899 3015 96 MP stroke
6 w
gr

40 W
1441 2685 PD
40 W
1483 2798 PD
40 W
1517 2696 PD
40 W
1543 2501 PD
40 W
1551 2488 PD
40 W
1560 2422 PD
40 W
1577 2413 PD
40 W
1585 2332 PD
40 W
1611 2441 PD
40 W
1636 2312 PD
40 W
1645 2228 PD
40 W
1670 2080 PD
40 W
1704 2016 PD
40 W
1755 1820 PD
40 W
1772 1961 PD
40 W
1780 1813 PD
40 W
1797 1749 PD
40 W
1806 1881 PD
40 W
1814 1749 PD
40 W
1823 1784 PD
40 W
1916 1526 PD
40 W
1959 1611 PD
40 W
1967 1687 PD
40 W
1976 1675 PD
40 W
1993 1645 PD
40 W
2001 1693 PD
40 W
2044 1835 PD
40 W
2146 2204 PD
40 W
2154 2241 PD
40 W
2163 2195 PD
40 W
2180 2076 PD
40 W
2213 2206 PD
40 W
2247 2479 PD
40 W
2281 2568 PD
40 W
2315 2757 PD
40 W
2324 2775 PD
40 W
2341 2771 PD
40 W
2451 3046 PD
40 W
2460 3227 PD
40 W
2485 3303 PD
40 W
2502 3448 PD
40 W
2511 3290 PD
40 W
2519 3573 PD
40 W
2545 3560 PD
40 W
2579 3509 PD
40 W
2596 3757 PD
40 W
2604 3660 PD
40 W
2613 3707 PD
40 W
2621 3887 PD
40 W
2646 3636 PD
40 W
2672 3833 PD
40 W
2689 3832 PD
40 W
2706 3697 PD
40 W
2714 3662 PD
40 W
2731 3818 PD
40 W
2740 3916 PD
40 W
2748 3762 PD
40 W
2757 3929 PD
40 W
2774 3923 PD
40 W
2782 3844 PD
40 W
2816 3790 PD
40 W
2825 3804 PD
40 W
2842 3790 PD
40 W
2867 3727 PD
40 W
2901 3549 PD
40 W
2910 3519 PD
40 W
2918 3552 PD
40 W
3012 3277 PD
40 W
3020 3122 PD
40 W
3037 3159 PD
40 W
3046 3071 PD
40 W
3063 3025 PD
40 W
3071 2939 PD
40 W
3088 3030 PD
40 W
3105 2893 PD
40 W
3113 2847 PD
40 W
3139 2753 PD
40 W
3147 2614 PD
40 W
3207 2505 PD
40 W
3224 2515 PD
40 W
3258 2274 PD
40 W
3283 2387 PD
40 W
3317 2281 PD
40 W
3326 2240 PD
40 W
3343 2222 PD
40 W
3360 2306 PD
40 W
3368 2130 PD
40 W
3377 2267 PD
40 W
3470 2238 PD
40 W
3479 2124 PD
40 W
3496 2196 PD
40 W
3513 2189 PD
40 W
3530 2049 PD
40 W
3563 2152 PD
40 W
3572 2100 PD
40 W
3580 2128 PD
40 W
3589 2181 PD
40 W
3597 2107 PD
40 W
3614 2181 PD
40 W
3657 2116 PD
40 W
4888 3669 PD
40 W
4897 3761 PD
40 W
4905 3492 PD
40 W
4930 3741 PD
40 W
4947 3715 PD
40 W
4964 3620 PD
40 W
4998 3588 PD
40 W
5007 3400 PD
40 W
5024 3446 PD
40 W
5032 3464 PD
40 W
5058 3518 PD
40 W
5075 3418 PD
40 W
5092 3341 PD
40 W
5126 3220 PD
40 W
5134 3169 PD
40 W
5143 3261 PD
40 W
5151 3084 PD
40 W
5160 3092 PD
40 W
5168 2997 PD
40 W
5211 2891 PD
40 W
5236 2934 PD
40 W
5262 2638 PD
40 W
5270 2850 PD
40 W
5304 2623 PD
40 W
5313 2530 PD
40 W
5347 2364 PD
40 W
5389 2336 PD
40 W
5406 2121 PD
40 W
5414 2283 PD
40 W
5448 2006 PD
40 W
5474 2114 PD
40 W
5491 2099 PD
40 W
5499 2100 PD
40 W
5576 2135 PD
40 W
5584 2137 PD
40 W
5593 2108 PD
40 W
5635 2188 PD
40 W
5652 2167 PD
40 W
5661 2265 PD
40 W
5669 2194 PD
gs 899 389 5357 4227 MR c np
24 w
gr

24 w
2179 4278 mt 2263 4362 L
2263 4278 mt 2179 4362 L
gs 899 389 5357 4227 MR c np
gr

 995 4278 mt 1079 4362 L
1079 4278 mt  995 4362 L
gs 899 389 5357 4227 MR c np
gr

1880 4278 mt 1964 4362 L
1964 4278 mt 1880 4362 L
gs 899 389 5357 4227 MR c np
gr

2174 4278 mt 2258 4362 L
2258 4278 mt 2174 4362 L
gs 899 389 5357 4227 MR c np
gr

1878 4278 mt 1962 4362 L
1962 4278 mt 1878 4362 L
gs 899 389 5357 4227 MR c np
gr

2187 4278 mt 2271 4362 L
2271 4278 mt 2187 4362 L
gs 899 389 5357 4227 MR c np
gr

2262 4278 mt 2346 4362 L
2346 4278 mt 2262 4362 L
gs 899 389 5357 4227 MR c np
gr

2304 4278 mt 2388 4362 L
2388 4278 mt 2304 4362 L
gs 899 389 5357 4227 MR c np
gr

4332 4278 mt 4416 4362 L
4416 4278 mt 4332 4362 L
gs 899 389 5357 4227 MR c np
gr

3100 4278 mt 3184 4362 L
3184 4278 mt 3100 4362 L
gs 899 389 5357 4227 MR c np
gr

2744 4278 mt 2828 4362 L
2828 4278 mt 2744 4362 L
gs 899 389 5357 4227 MR c np
gr

3959 4278 mt 4043 4362 L
4043 4278 mt 3959 4362 L
gs 899 389 5357 4227 MR c np
gr

3717 4278 mt 3801 4362 L
3801 4278 mt 3717 4362 L
gs 899 389 5357 4227 MR c np
gr

2903 4278 mt 2987 4362 L
2987 4278 mt 2903 4362 L
gs 899 389 5357 4227 MR c np
gr

2331 4278 mt 2415 4362 L
2415 4278 mt 2331 4362 L
gs 899 389 5357 4227 MR c np
gr

4539 4278 mt 4623 4362 L
4623 4278 mt 4539 4362 L
gs 899 389 5357 4227 MR c np
gr

4539 4278 mt 4623 4362 L
4623 4278 mt 4539 4362 L
gs 899 389 5357 4227 MR c np
gr

4539 4278 mt 4623 4362 L
4623 4278 mt 4539 4362 L
gs 899 389 5357 4227 MR c np
gr

3332 4278 mt 3416 4362 L
3416 4278 mt 3332 4362 L
gs 899 389 5357 4227 MR c np
gr

4824 4278 mt 4908 4362 L
4908 4278 mt 4824 4362 L
gs 899 389 5357 4227 MR c np
gr

5425 4278 mt 5509 4362 L
5509 4278 mt 5425 4362 L
gs 899 389 5357 4227 MR c np
gr

3778 4278 mt 3862 4362 L
3862 4278 mt 3778 4362 L
gs 899 389 5357 4227 MR c np
gr

4540 4278 mt 4624 4362 L
4624 4278 mt 4540 4362 L
gs 899 389 5357 4227 MR c np
gr

4539 4278 mt 4623 4362 L
4623 4278 mt 4539 4362 L
gs 899 389 5357 4227 MR c np
gr

5110 4278 mt 5194 4362 L
5194 4278 mt 5110 4362 L
gs 899 389 5357 4227 MR c np
gr

5110 4278 mt 5194 4362 L
5194 4278 mt 5110 4362 L
gs 899 389 5357 4227 MR c np
gr

5211 4278 mt 5295 4362 L
5295 4278 mt 5211 4362 L
gs 899 389 5357 4227 MR c np
gr

5343 4278 mt 5427 4362 L
5427 4278 mt 5343 4362 L
gs 899 389 5357 4227 MR c np
gr

6124 4278 mt 6208 4362 L
6208 4278 mt 6124 4362 L
gs 899 389 5357 4227 MR c np
6 w
gr

6 w

end %%Color Dict

eplot
%%EndObject

epage
end

showpage

%%Trailer
%%EOF
