%!PS-Adobe-2.0 EPSF-1.2
%%Creator: MATLAB, The MathWorks, Inc. Version 7.14.0.739 (R2012a). Operating System: Linux 3.0.0-16-generic #29-Ubuntu SMP Tue Feb 14 12:49:42 UTC 2012 i686.
%%Title: ./results/toyPredictionPITC3.eps
%%CreationDate: 04/16/2012  18:23:24
%%DocumentNeededFonts: Helvetica
%%DocumentProcessColors: Cyan Magenta Yellow Black
%%Extensions: CMYK
%%Pages: 1
%%BoundingBox:    60   210   548   592
%%EndComments

%%BeginProlog
% MathWorks dictionary
/MathWorks 160 dict begin
% definition operators
/bdef {bind def} bind def
/ldef {load def} bind def
/xdef {exch def} bdef
/xstore {exch store} bdef
% operator abbreviations
/c  /clip ldef
/cc /concat ldef
/cp /closepath ldef
/gr /grestore ldef
/gs /gsave ldef
/mt /moveto ldef
/np /newpath ldef
/cm /currentmatrix ldef
/sm /setmatrix ldef
/rm /rmoveto ldef
/rl /rlineto ldef
/s {show newpath} bdef
/sc {setcmykcolor} bdef
/sr /setrgbcolor ldef
/sg /setgray ldef
/w /setlinewidth ldef
/j /setlinejoin ldef
/cap /setlinecap ldef
/rc {rectclip} bdef
/rf {rectfill} bdef
% page state control
/pgsv () def
/bpage {/pgsv save def} bdef
/epage {pgsv restore} bdef
/bplot /gsave ldef
/eplot {stroke grestore} bdef
% orientation switch
/portraitMode 0 def /landscapeMode 1 def /rotateMode 2 def
% coordinate system mappings
/dpi2point 0 def
% font control
/FontSize 0 def
/FMS {/FontSize xstore findfont [FontSize 0 0 FontSize neg 0 0]
  makefont setfont} bdef
/reencode {exch dup where {pop load} {pop StandardEncoding} ifelse
  exch dup 3 1 roll findfont dup length dict begin
  { 1 index /FID ne {def}{pop pop} ifelse } forall
  /Encoding exch def currentdict end definefont pop} bdef
/isroman {findfont /CharStrings get /Agrave known} bdef
/FMSR {3 1 roll 1 index dup isroman {reencode} {pop pop} ifelse
  exch FMS} bdef
/csm {1 dpi2point div -1 dpi2point div scale neg translate
 dup landscapeMode eq {pop -90 rotate}
  {rotateMode eq {90 rotate} if} ifelse} bdef
% line types: solid, dotted, dashed, dotdash
/SO { [] 0 setdash } bdef
/DO { [.5 dpi2point mul 4 dpi2point mul] 0 setdash } bdef
/DA { [6 dpi2point mul] 0 setdash } bdef
/DD { [.5 dpi2point mul 4 dpi2point mul 6 dpi2point mul 4
  dpi2point mul] 0 setdash } bdef
% macros for lines and objects
/L {lineto stroke} bdef
/MP {3 1 roll moveto 1 sub {rlineto} repeat} bdef
/AP {{rlineto} repeat} bdef
/PDlw -1 def
/W {/PDlw currentlinewidth def setlinewidth} def
/PP {closepath eofill} bdef
/DP {closepath stroke} bdef
/MR {4 -2 roll moveto dup  0 exch rlineto exch 0 rlineto
  neg 0 exch rlineto closepath} bdef
/FR {MR stroke} bdef
/PR {MR fill} bdef
/L1i {{currentfile picstr readhexstring pop} image} bdef
/tMatrix matrix def
/MakeOval {newpath tMatrix currentmatrix pop translate scale
0 0 1 0 360 arc tMatrix setmatrix} bdef
/FO {MakeOval stroke} bdef
/PO {MakeOval fill} bdef
/PD {currentlinewidth 2 div 0 360 arc fill
   PDlw -1 eq not {PDlw w /PDlw -1 def} if} def
/FA {newpath tMatrix currentmatrix pop translate scale
  0 0 1 5 -2 roll arc tMatrix setmatrix stroke} bdef
/PA {newpath tMatrix currentmatrix pop	translate 0 0 moveto scale
  0 0 1 5 -2 roll arc closepath tMatrix setmatrix fill} bdef
/FAn {newpath tMatrix currentmatrix pop translate scale
  0 0 1 5 -2 roll arcn tMatrix setmatrix stroke} bdef
/PAn {newpath tMatrix currentmatrix pop translate 0 0 moveto scale
  0 0 1 5 -2 roll arcn closepath tMatrix setmatrix fill} bdef
/vradius 0 def /hradius 0 def /lry 0 def
/lrx 0 def /uly 0 def /ulx 0 def /rad 0 def
/MRR {/vradius xdef /hradius xdef /lry xdef /lrx xdef /uly xdef
  /ulx xdef newpath tMatrix currentmatrix pop ulx hradius add uly
  vradius add translate hradius vradius scale 0 0 1 180 270 arc 
  tMatrix setmatrix lrx hradius sub uly vradius add translate
  hradius vradius scale 0 0 1 270 360 arc tMatrix setmatrix
  lrx hradius sub lry vradius sub translate hradius vradius scale
  0 0 1 0 90 arc tMatrix setmatrix ulx hradius add lry vradius sub
  translate hradius vradius scale 0 0 1 90 180 arc tMatrix setmatrix
  closepath} bdef
/FRR {MRR stroke } bdef
/PRR {MRR fill } bdef
/MlrRR {/lry xdef /lrx xdef /uly xdef /ulx xdef /rad lry uly sub 2 div def
  newpath tMatrix currentmatrix pop ulx rad add uly rad add translate
  rad rad scale 0 0 1 90 270 arc tMatrix setmatrix lrx rad sub lry rad
  sub translate rad rad scale 0 0 1 270 90 arc tMatrix setmatrix
  closepath} bdef
/FlrRR {MlrRR stroke } bdef
/PlrRR {MlrRR fill } bdef
/MtbRR {/lry xdef /lrx xdef /uly xdef /ulx xdef /rad lrx ulx sub 2 div def
  newpath tMatrix currentmatrix pop ulx rad add uly rad add translate
  rad rad scale 0 0 1 180 360 arc tMatrix setmatrix lrx rad sub lry rad
  sub translate rad rad scale 0 0 1 0 180 arc tMatrix setmatrix
  closepath} bdef
/FtbRR {MtbRR stroke } bdef
/PtbRR {MtbRR fill } bdef
/stri 6 array def /dtri 6 array def
/smat 6 array def /dmat 6 array def
/tmat1 6 array def /tmat2 6 array def /dif 3 array def
/asub {/ind2 exch def /ind1 exch def dup dup
  ind1 get exch ind2 get sub exch } bdef
/tri_to_matrix {
  2 0 asub 3 1 asub 4 0 asub 5 1 asub
  dup 0 get exch 1 get 7 -1 roll astore } bdef
/compute_transform {
  dmat dtri tri_to_matrix tmat1 invertmatrix 
  smat stri tri_to_matrix tmat2 concatmatrix } bdef
/ds {stri astore pop} bdef
/dt {dtri astore pop} bdef
/db {2 copy /cols xdef /rows xdef mul dup 3 mul string
  currentfile exch readhexstring pop
  dup 0 3 index getinterval /rbmap xdef
  dup 2 index dup getinterval /gbmap xdef
  1 index dup 2 mul exch getinterval /bbmap xdef pop pop}bdef
/it {gs np dtri aload pop moveto lineto lineto cp c
  cols rows 8 compute_transform 
  rbmap gbmap bbmap true 3 colorimage gr}bdef
/il {newpath moveto lineto stroke}bdef
currentdict end def
%%EndProlog

%%BeginSetup
MathWorks begin

0 cap

end
%%EndSetup

%%Page: 1 1
%%BeginPageSetup
%%PageBoundingBox:    60   210   548   592
MathWorks begin
bpage
%%EndPageSetup

%%BeginObject: obj1
bplot

/dpi2point 12 def
portraitMode 0216 7344 csm

  509   240  5852  4577 MR c np
86 dict begin %Colortable dictionary
/c0 { 0.000000 0.000000 0.000000 sr} bdef
/c1 { 1.000000 1.000000 1.000000 sr} bdef
/c2 { 0.900000 0.000000 0.000000 sr} bdef
/c3 { 0.000000 0.820000 0.000000 sr} bdef
/c4 { 0.000000 0.000000 0.800000 sr} bdef
/c5 { 0.910000 0.820000 0.320000 sr} bdef
/c6 { 1.000000 0.260000 0.820000 sr} bdef
/c7 { 0.000000 0.820000 0.820000 sr} bdef
c0
1 j
1 sg
   0    0 6913 5186 PR
6 w
4 w
DO
SO
6 w
0 sg
 899 4615 mt 6255 4615 L
 899  389 mt 6255  389 L
 899 4615 mt  899  389 L
6255 4615 mt 6255  389 L
 899 4615 mt 6255 4615 L
 899 4615 mt  899  389 L
1441 4615 mt 1441 4561 L
1441  389 mt 1441  442 L
%%IncludeResource: font Helvetica
/Helvetica /ISOLatin1Encoding 180 FMSR

1287 4816 mt 
(-1) s
2500 4615 mt 2500 4561 L
2500  389 mt 2500  442 L
2271 4816 mt 
(-0.5) s
3559 4615 mt 3559 4561 L
3559  389 mt 3559  442 L
3509 4816 mt 
(0) s
4618 4615 mt 4618 4561 L
4618  389 mt 4618  442 L
4493 4816 mt 
(0.5) s
5678 4615 mt 5678 4561 L
5678  389 mt 5678  442 L
5628 4816 mt 
(1) s
 899 4615 mt  952 4615 L
6255 4615 mt 6201 4615 L
 509 4681 mt 
(-0.8) s
 899 4192 mt  952 4192 L
6255 4192 mt 6201 4192 L
 509 4258 mt 
(-0.6) s
 899 3769 mt  952 3769 L
6255 3769 mt 6201 3769 L
 509 3835 mt 
(-0.4) s
 899 3347 mt  952 3347 L
6255 3347 mt 6201 3347 L
 509 3413 mt 
(-0.2) s
 899 2924 mt  952 2924 L
6255 2924 mt 6201 2924 L
 764 2990 mt 
(0) s
 899 2502 mt  952 2502 L
6255 2502 mt 6201 2502 L
 614 2568 mt 
(0.2) s
 899 2079 mt  952 2079 L
6255 2079 mt 6201 2079 L
 614 2145 mt 
(0.4) s
 899 1656 mt  952 1656 L
6255 1656 mt 6201 1656 L
 614 1722 mt 
(0.6) s
 899 1234 mt  952 1234 L
6255 1234 mt 6201 1234 L
 614 1300 mt 
(0.8) s
 899  811 mt  952  811 L
6255  811 mt 6201  811 L
 764  877 mt 
(1) s
 899  389 mt  952  389 L
6255  389 mt 6201  389 L
 614  455 mt 
(1.2) s
 899 4615 mt 6255 4615 L
 899  389 mt 6255  389 L
 899 4615 mt  899  389 L
6255 4615 mt 6255  389 L
gs 899 389 5357 4227 MR c np
0.875 sg
27 -9 28 -12 28 -16 27 -22 28 -28 28 -35 27 -43 28 -51 
28 -59 27 -67 28 -75 28 -83 27 -88 28 -94 28 -98 27 -101 
28 -101 28 -101 27 -97 28 -92 28 -86 28 -78 27 -68 28 -57 
28 -45 27 -32 28 -20 28 -8 27 5 28 16 28 27 27 38 
28 46 28 55 27 61 28 68 28 72 27 77 28 81 28 83 
27 86 28 88 28 90 27 92 28 93 28 95 27 96 28 98 
28 98 27 100 28 101 28 101 28 101 27 100 28 97 28 94 
27 88 28 83 28 75 27 66 28 56 28 46 27 34 28 23 
28 11 27 0 28 -12 28 -23 27 -34 28 -42 28 -52 27 -59 
28 -66 28 -71 27 -75 28 -79 28 -81 27 -81 28 -81 28 -80 
28 -77 27 -74 28 -69 28 -63 27 -57 28 -49 28 -41 27 -32 
28 -22 28 -12 27 -3 28 7 28 15 27 23 28 28 28 34 
27 38 28 40 28 40 805 1745 100 MP
27 -17 28 -9 28 -1 28 8 27 18 28 27 28 37 27 45 
28 54 28 62 27 67 28 71 28 74 27 75 28 74 28 72 
27 68 28 61 28 54 27 46 28 35 28 24 27 12 28 -1 
28 -14 27 -28 28 -41 28 -54 27 -66 28 -78 28 -90 28 -98 
27 -107 28 -113 28 -118 27 -121 28 -123 28 -122 27 -119 28 -116 
28 -111 27 -105 28 -97 28 -90 27 -80 28 -70 28 -59 27 -47 
28 -35 28 -20 27 -7 28 9 28 23 27 39 28 53 28 69 
27 82 28 96 28 109 27 120 28 131 28 138 28 145 27 150 
28 151 28 151 27 147 28 142 28 133 27 124 28 111 28 97 
27 82 28 67 28 49 27 33 28 16 28 1 27 -15 28 -27 
28 -40 27 -49 28 -57 28 -62 27 -65 28 -66 28 -65 27 -61 
28 -57 28 -51 28 -44 27 -37 28 -31 28 -24 27 -19 28 -14 
28 -10 27 -8 28 -7 28 -8 100 AP
-28 12 -27 17 -28 23 -28 29 -27 36 -28 42 -28 47 -27 51 
-28 55 -28 58 -28 58 -27 59 -28 57 -28 54 -27 51 -28 47 
-28 40 -27 34 -28 27 -28 18 -27 8 -28 -2 -28 -13 -27 -24 
-28 -36 -28 -48 -27 -60 -28 -71 -28 -83 -27 -93 -28 -103 -28 -112 
-27 -119 -28 -125 -28 -129 -27 -132 -28 -132 -28 -130 -28 -126 -27 -120 
-28 -111 -28 -101 -27 -88 -28 -75 -28 -59 -27 -43 -28 -27 -28 -9 
-27 7 -28 23 -28 38 -27 52 -28 65 -28 75 -27 84 -28 91 
-28 94 -27 95 -28 94 -28 90 -27 83 -28 76 -28 66 -27 54 
-28 43 -28 30 -27 17 -28 3 -28 -9 -28 -22 -27 -34 -28 -45 
-28 -56 -27 -64 -28 -72 -28 -78 -27 -82 -28 -86 -28 -88 -27 -88 
-28 -87 -28 -84 -27 -81 -28 -77 -28 -73 -27 -67 -28 -62 -28 -56 
-27 -52 -28 -47 -28 -42 -27 -38 -28 -35 -28 -32 -27 -29 -28 -27 
-28 -24 -28 -21 -27 -19 0 2414 100 AP
-28 10 -28 9 -27 10 -28 8 -28 8 -27 6 -28 4 -28 3 
-27 2 -28 1 -28 2 -27 3 -28 5 -28 8 -27 13 -28 19 
-28 26 -27 34 -28 41 -28 51 -28 59 -27 68 -28 77 -28 84 
-27 92 -28 98 -28 103 -27 107 -28 111 -28 111 -27 111 -28 109 
-28 105 -27 100 -28 93 -28 84 -27 75 -28 63 -28 51 -27 37 
-28 24 -28 8 -27 -6 -28 -22 -28 -37 -27 -51 -28 -65 -28 -79 
-28 -91 -27 -101 -28 -110 -28 -117 -27 -122 -28 -126 -28 -128 -27 -128 
-28 -126 -28 -124 -27 -119 -28 -112 -28 -105 -27 -97 -28 -85 -28 -75 
-27 -61 -28 -48 -28 -35 -27 -19 -28 -5 -28 11 -27 25 -28 38 
-28 52 -27 64 -28 75 -28 84 -27 92 -28 97 -28 102 -28 103 
-27 105 -28 103 -28 100 -27 95 -28 89 -28 82 -27 73 -28 65 
-28 55 -27 45 -28 36 -28 28 -27 20 -28 13 -28 9 -27 5 
-28 3 -28 4 -27 4 -28 8 100 AP
PP
24 w
0 -2436 -28 10 -28 9 -27 10 -28 8 -28 8 -27 6 -28 4 
-28 3 -27 2 -28 1 -28 2 -27 3 -28 5 -28 8 -27 13 
-28 19 -28 26 -27 34 -28 41 -28 51 -28 59 -27 68 -28 77 
-28 84 -27 92 -28 98 -28 103 -27 107 -28 111 -28 111 -27 111 
-28 109 -28 105 -27 100 -28 93 -28 84 -27 75 -28 63 -28 51 
-27 37 -28 24 -28 8 -27 -6 -28 -22 -28 -37 -27 -51 -28 -65 
-28 -79 -28 -91 -27 -101 -28 -110 -28 -117 -27 -122 -28 -126 -28 -128 
-27 -128 -28 -126 -28 -124 -27 -119 -28 -112 -28 -105 -27 -97 -28 -85 
-28 -75 -27 -61 -28 -48 -28 -35 -27 -19 -28 -5 -28 11 -27 25 
-28 38 -28 52 -27 64 -28 75 -28 84 -27 92 -28 97 -28 102 
-28 103 -27 105 -28 103 -28 100 -27 95 -28 89 -28 82 -27 73 
-28 65 -28 55 -27 45 -28 36 -28 28 -27 20 -28 13 -28 9 
-27 5 -28 3 -28 4 3518 2669 100 MP stroke
-27 4 -28 8 -28 12 -27 17 -28 23 -28 29 -27 36 -28 42 
-28 47 -27 51 -28 55 -28 58 -28 58 -27 59 -28 57 -28 54 
-27 51 -28 47 -28 40 -27 34 -28 27 -28 18 -27 8 -28 -2 
-28 -13 -27 -24 -28 -36 -28 -48 -27 -60 -28 -71 -28 -83 -27 -93 
-28 -103 -28 -112 -27 -119 -28 -125 -28 -129 -27 -132 -28 -132 -28 -130 
-28 -126 -27 -120 -28 -111 -28 -101 -27 -88 -28 -75 -28 -59 -27 -43 
-28 -27 -28 -9 -27 7 -28 23 -28 38 -27 52 -28 65 -28 75 
-27 84 -28 91 -28 94 -27 95 -28 94 -28 90 -27 83 -28 76 
-28 66 -27 54 -28 43 -28 30 -27 17 -28 3 -28 -9 -28 -22 
-27 -34 -28 -45 -28 -56 -27 -64 -28 -72 -28 -78 -27 -82 -28 -86 
-28 -88 -27 -88 -28 -87 -28 -84 -27 -81 -28 -77 -28 -73 -27 -67 
-28 -62 -28 -56 -27 -52 -28 -47 -28 -42 -27 -38 -28 -35 -28 -32 
-27 -29 -28 -27 -28 -24 6258 4462 100 MP stroke
-28 -21 -27 -19 0 2414 27 -17 28 -9 28 -1 28 8 27 18 
28 27 28 37 27 45 28 54 28 62 27 67 28 71 28 74 
27 75 28 74 28 72 27 68 28 61 28 54 27 46 28 35 
28 24 27 12 28 -1 28 -14 27 -28 28 -41 28 -54 27 -66 
28 -78 28 -90 28 -98 27 -107 28 -113 28 -118 27 -121 28 -123 
28 -122 27 -119 28 -116 28 -111 27 -105 28 -97 28 -90 27 -80 
28 -70 28 -59 27 -47 28 -35 28 -20 27 -7 28 9 28 23 
27 39 28 53 28 69 27 82 28 96 28 109 27 120 28 131 
28 138 28 145 27 150 28 151 28 151 27 147 28 142 28 133 
27 124 28 111 28 97 27 82 28 67 28 49 27 33 28 16 
28 1 27 -15 28 -27 28 -40 27 -49 28 -57 28 -62 27 -65 
28 -66 28 -65 27 -61 28 -57 28 -51 28 -44 27 -37 28 -31 
28 -24 27 -19 28 -14 3656 1577 100 MP stroke
28 -10 27 -8 28 -7 28 -8 27 -9 28 -12 28 -16 27 -22 
28 -28 28 -35 27 -43 28 -51 28 -59 27 -67 28 -75 28 -83 
27 -88 28 -94 28 -98 27 -101 28 -101 28 -101 27 -97 28 -92 
28 -86 28 -78 27 -68 28 -57 28 -45 27 -32 28 -20 28 -8 
27 5 28 16 28 27 27 38 28 46 28 55 27 61 28 68 
28 72 27 77 28 81 28 83 27 86 28 88 28 90 27 92 
28 93 28 95 27 96 28 98 28 98 27 100 28 101 28 101 
28 101 27 100 28 97 28 94 27 88 28 83 28 75 27 66 
28 56 28 46 27 34 28 23 28 11 27 0 28 -12 28 -23 
27 -34 28 -42 28 -52 27 -59 28 -66 28 -71 27 -75 28 -79 
28 -81 27 -81 28 -81 28 -80 28 -77 27 -74 28 -69 28 -63 
27 -57 28 -49 28 -41 27 -32 28 -22 28 -12 27 -3 28 7 
28 15 27 23 28 28 916 1897 100 MP stroke
28 34 27 38 28 40 28 40 805 1745 5 MP stroke
0 sg
26 11 28 17 27 23 28 30 28 36 27 42 28 48 28 54 
27 59 28 64 28 68 27 71 28 73 28 75 27 74 28 73 
28 71 27 66 28 62 28 55 27 47 28 39 28 28 27 19 
28 7 28 -4 27 -17 28 -28 28 -40 28 -51 27 -62 28 -71 
28 -81 27 -87 28 -95 28 -98 27 -102 28 -103 28 -102 27 -100 
28 -96 28 -90 27 -82 28 -73 28 -61 27 -50 28 -36 28 -22 
27 -7 28 9 28 25 27 41 28 56 28 72 27 85 28 99 
28 110 27 120 28 128 28 134 28 139 27 140 28 140 28 138 
27 133 28 127 28 119 27 108 28 97 28 84 27 71 28 57 
28 43 27 29 28 14 28 1 27 -11 28 -23 28 -33 27 -41 
28 -49 28 -54 27 -58 28 -61 28 -60 27 -60 28 -58 28 -54 
28 -50 27 -44 28 -39 28 -33 27 -27 28 -22 28 -17 27 -12 
28 -10 28 -7 27 -7 3518 2144 100 MP stroke
28 -8 28 -10 27 -13 28 -18 28 -25 27 -31 28 -39 28 -48 
27 -56 28 -65 28 -74 27 -81 28 -88 28 -93 27 -98 28 -101 
28 -101 27 -101 28 -98 28 -94 28 -88 27 -79 28 -71 28 -60 
27 -48 28 -36 28 -23 27 -10 28 3 28 16 27 28 28 40 
28 52 27 61 28 71 28 79 27 87 28 93 28 98 27 102 
28 106 28 108 27 110 28 111 28 110 27 109 28 107 28 105 
27 100 28 96 28 90 28 83 27 76 28 67 28 57 27 48 
28 37 28 25 27 15 28 2 28 -8 27 -20 28 -31 28 -41 
27 -50 28 -59 28 -66 27 -72 28 -77 28 -81 27 -83 28 -85 
28 -84 27 -84 28 -81 28 -79 27 -74 28 -71 28 -65 28 -59 
27 -54 28 -47 28 -42 27 -35 28 -28 28 -23 27 -17 28 -12 
28 -7 27 -2 28 1 28 6 27 8 28 11 17 8 899 3012 96 MP stroke
6 w
gr

40 W
1441 2845 PD
40 W
1483 2766 PD
40 W
1517 2629 PD
40 W
1543 2662 PD
40 W
1551 2534 PD
40 W
1560 2437 PD
40 W
1577 2410 PD
40 W
1585 2422 PD
40 W
1611 2250 PD
40 W
1636 2243 PD
40 W
1645 2002 PD
40 W
1670 2121 PD
40 W
1704 1930 PD
40 W
1755 1801 PD
40 W
1772 1760 PD
40 W
1780 1781 PD
40 W
1797 1668 PD
40 W
1806 1766 PD
40 W
1814 1821 PD
40 W
1823 1682 PD
40 W
1916 1686 PD
40 W
1959 1673 PD
40 W
1967 1645 PD
40 W
1976 1746 PD
40 W
1993 1704 PD
40 W
2001 1790 PD
40 W
2044 1826 PD
40 W
2146 2017 PD
40 W
2154 2034 PD
40 W
2163 2044 PD
40 W
2180 2267 PD
40 W
2213 2297 PD
40 W
2247 2421 PD
40 W
2281 2473 PD
40 W
2315 2705 PD
40 W
2324 2794 PD
40 W
2341 2700 PD
40 W
2451 3305 PD
40 W
2460 3359 PD
40 W
2485 3406 PD
40 W
2502 3390 PD
40 W
2511 3387 PD
40 W
2519 3435 PD
40 W
2545 3403 PD
40 W
2579 3474 PD
40 W
2596 3737 PD
40 W
2604 3613 PD
40 W
2613 3781 PD
40 W
2621 3485 PD
40 W
2646 3819 PD
40 W
2672 3807 PD
40 W
2689 3913 PD
40 W
2706 3785 PD
40 W
2714 3832 PD
40 W
2731 3777 PD
40 W
2740 3824 PD
40 W
2748 3879 PD
40 W
2757 3674 PD
40 W
2774 3841 PD
40 W
2782 3728 PD
40 W
2816 3862 PD
40 W
2825 3674 PD
40 W
2842 3709 PD
40 W
2867 3578 PD
40 W
2901 3488 PD
40 W
2910 3583 PD
40 W
2918 3539 PD
40 W
3012 3222 PD
40 W
3020 3261 PD
40 W
3037 3077 PD
40 W
3046 3121 PD
40 W
3063 3086 PD
40 W
3071 2949 PD
40 W
3088 2873 PD
40 W
3105 2784 PD
40 W
3113 2948 PD
40 W
3139 2880 PD
40 W
3147 2820 PD
40 W
3207 2610 PD
40 W
3224 2429 PD
40 W
3258 2308 PD
40 W
3283 2332 PD
40 W
3317 2275 PD
40 W
3326 2220 PD
40 W
3343 2210 PD
40 W
3360 2144 PD
40 W
3368 2147 PD
40 W
3377 2315 PD
40 W
3470 2106 PD
40 W
3479 2172 PD
40 W
3496 2150 PD
40 W
3513 2047 PD
40 W
3530 1951 PD
40 W
3563 2022 PD
40 W
3572 2149 PD
40 W
3580 2130 PD
40 W
3589 2032 PD
40 W
3597 2150 PD
40 W
3614 1993 PD
40 W
3657 2082 PD
40 W
3699 2003 PD
40 W
3716 1946 PD
40 W
3725 1900 PD
40 W
3733 1967 PD
40 W
3759 1888 PD
40 W
3767 1976 PD
40 W
3793 1914 PD
40 W
3801 2044 PD
40 W
3810 1802 PD
40 W
3818 1689 PD
40 W
3827 1853 PD
40 W
3835 1745 PD
40 W
3852 1867 PD
40 W
3869 1649 PD
40 W
3878 1626 PD
40 W
3886 1646 PD
40 W
3895 1705 PD
40 W
3929 1713 PD
40 W
3937 1587 PD
40 W
3963 1503 PD
40 W
3971 1535 PD
40 W
3988 1442 PD
40 W
3997 1527 PD
40 W
4073 1270 PD
40 W
4098 1325 PD
40 W
4107 1230 PD
40 W
4141 1245 PD
40 W
4183 1301 PD
40 W
4209 1220 PD
40 W
4234 1145 PD
40 W
4251 1398 PD
40 W
4268 1310 PD
40 W
4277 1334 PD
40 W
4294 1412 PD
40 W
4302 1423 PD
40 W
4311 1295 PD
40 W
4319 1425 PD
40 W
4353 1445 PD
40 W
4370 1670 PD
40 W
4387 1662 PD
40 W
4421 1825 PD
40 W
4438 1815 PD
40 W
4455 2079 PD
40 W
4472 2104 PD
40 W
4480 2089 PD
40 W
4489 2096 PD
40 W
4497 2179 PD
40 W
4540 2344 PD
40 W
4548 2570 PD
40 W
4565 2577 PD
40 W
4591 2824 PD
40 W
4642 2955 PD
40 W
4650 3106 PD
40 W
4667 3116 PD
40 W
4676 3096 PD
40 W
4710 3176 PD
40 W
4752 3474 PD
40 W
4769 3468 PD
40 W
4778 3586 PD
40 W
4795 3590 PD
40 W
4888 3839 PD
40 W
4897 3619 PD
40 W
4905 3571 PD
40 W
4930 3738 PD
40 W
4947 3618 PD
40 W
4964 3481 PD
40 W
4998 3552 PD
40 W
5007 3616 PD
40 W
5024 3533 PD
40 W
5032 3413 PD
40 W
5058 3259 PD
40 W
5075 3436 PD
40 W
5092 3481 PD
40 W
5126 3244 PD
40 W
5134 3103 PD
40 W
5143 3210 PD
40 W
5151 3177 PD
40 W
5160 3075 PD
40 W
5168 2999 PD
40 W
5211 2846 PD
40 W
5236 2736 PD
40 W
5262 2785 PD
40 W
5270 2714 PD
40 W
5304 2521 PD
40 W
5313 2532 PD
40 W
5347 2465 PD
40 W
5389 2437 PD
40 W
5406 2232 PD
40 W
5414 2280 PD
40 W
5448 1962 PD
40 W
5474 2204 PD
40 W
5491 2140 PD
40 W
5499 2251 PD
40 W
5576 2040 PD
40 W
5584 2080 PD
40 W
5593 2114 PD
40 W
5635 2114 PD
40 W
5652 2225 PD
40 W
5661 2158 PD
40 W
5669 2282 PD
gs 899 389 5357 4227 MR c np
24 w
gr

24 w
2179 4302 mt 2263 4386 L
2263 4302 mt 2179 4386 L
gs 899 389 5357 4227 MR c np
gr

 995 4302 mt 1079 4386 L
1079 4302 mt  995 4386 L
gs 899 389 5357 4227 MR c np
gr

1880 4302 mt 1964 4386 L
1964 4302 mt 1880 4386 L
gs 899 389 5357 4227 MR c np
gr

2174 4302 mt 2258 4386 L
2258 4302 mt 2174 4386 L
gs 899 389 5357 4227 MR c np
gr

1878 4302 mt 1962 4386 L
1962 4302 mt 1878 4386 L
gs 899 389 5357 4227 MR c np
gr

2187 4302 mt 2271 4386 L
2271 4302 mt 2187 4386 L
gs 899 389 5357 4227 MR c np
gr

2262 4302 mt 2346 4386 L
2346 4302 mt 2262 4386 L
gs 899 389 5357 4227 MR c np
gr

2304 4302 mt 2388 4386 L
2388 4302 mt 2304 4386 L
gs 899 389 5357 4227 MR c np
gr

4332 4302 mt 4416 4386 L
4416 4302 mt 4332 4386 L
gs 899 389 5357 4227 MR c np
gr

3100 4302 mt 3184 4386 L
3184 4302 mt 3100 4386 L
gs 899 389 5357 4227 MR c np
gr

2744 4302 mt 2828 4386 L
2828 4302 mt 2744 4386 L
gs 899 389 5357 4227 MR c np
gr

3959 4302 mt 4043 4386 L
4043 4302 mt 3959 4386 L
gs 899 389 5357 4227 MR c np
gr

3717 4302 mt 3801 4386 L
3801 4302 mt 3717 4386 L
gs 899 389 5357 4227 MR c np
gr

2903 4302 mt 2987 4386 L
2987 4302 mt 2903 4386 L
gs 899 389 5357 4227 MR c np
gr

2331 4302 mt 2415 4386 L
2415 4302 mt 2331 4386 L
gs 899 389 5357 4227 MR c np
gr

4539 4302 mt 4623 4386 L
4623 4302 mt 4539 4386 L
gs 899 389 5357 4227 MR c np
gr

4539 4302 mt 4623 4386 L
4623 4302 mt 4539 4386 L
gs 899 389 5357 4227 MR c np
gr

4539 4302 mt 4623 4386 L
4623 4302 mt 4539 4386 L
gs 899 389 5357 4227 MR c np
gr

3332 4302 mt 3416 4386 L
3416 4302 mt 3332 4386 L
gs 899 389 5357 4227 MR c np
gr

4824 4302 mt 4908 4386 L
4908 4302 mt 4824 4386 L
gs 899 389 5357 4227 MR c np
gr

5425 4302 mt 5509 4386 L
5509 4302 mt 5425 4386 L
gs 899 389 5357 4227 MR c np
gr

3778 4302 mt 3862 4386 L
3862 4302 mt 3778 4386 L
gs 899 389 5357 4227 MR c np
gr

4540 4302 mt 4624 4386 L
4624 4302 mt 4540 4386 L
gs 899 389 5357 4227 MR c np
gr

4539 4302 mt 4623 4386 L
4623 4302 mt 4539 4386 L
gs 899 389 5357 4227 MR c np
gr

5110 4302 mt 5194 4386 L
5194 4302 mt 5110 4386 L
gs 899 389 5357 4227 MR c np
gr

5110 4302 mt 5194 4386 L
5194 4302 mt 5110 4386 L
gs 899 389 5357 4227 MR c np
gr

5211 4302 mt 5295 4386 L
5295 4302 mt 5211 4386 L
gs 899 389 5357 4227 MR c np
gr

5343 4302 mt 5427 4386 L
5427 4302 mt 5343 4386 L
gs 899 389 5357 4227 MR c np
gr

6124 4302 mt 6208 4386 L
6208 4302 mt 6124 4386 L
gs 899 389 5357 4227 MR c np
6 w
gr

6 w

end %%Color Dict

eplot
%%EndObject

epage
end

showpage

%%Trailer
%%EOF
