%!PS-Adobe-2.0 EPSF-1.2
%%Creator: MATLAB, The MathWorks, Inc. Version 7.14.0.739 (R2012a). Operating System: Linux 3.0.0-16-generic #29-Ubuntu SMP Tue Feb 14 12:49:42 UTC 2012 i686.
%%Title: ./results/toyPredictionPITC1.eps
%%CreationDate: 04/16/2012  18:23:22
%%DocumentNeededFonts: Helvetica
%%DocumentProcessColors: Cyan Magenta Yellow Black
%%Extensions: CMYK
%%Pages: 1
%%BoundingBox:    72   210   548   592
%%EndComments

%%BeginProlog
% MathWorks dictionary
/MathWorks 160 dict begin
% definition operators
/bdef {bind def} bind def
/ldef {load def} bind def
/xdef {exch def} bdef
/xstore {exch store} bdef
% operator abbreviations
/c  /clip ldef
/cc /concat ldef
/cp /closepath ldef
/gr /grestore ldef
/gs /gsave ldef
/mt /moveto ldef
/np /newpath ldef
/cm /currentmatrix ldef
/sm /setmatrix ldef
/rm /rmoveto ldef
/rl /rlineto ldef
/s {show newpath} bdef
/sc {setcmykcolor} bdef
/sr /setrgbcolor ldef
/sg /setgray ldef
/w /setlinewidth ldef
/j /setlinejoin ldef
/cap /setlinecap ldef
/rc {rectclip} bdef
/rf {rectfill} bdef
% page state control
/pgsv () def
/bpage {/pgsv save def} bdef
/epage {pgsv restore} bdef
/bplot /gsave ldef
/eplot {stroke grestore} bdef
% orientation switch
/portraitMode 0 def /landscapeMode 1 def /rotateMode 2 def
% coordinate system mappings
/dpi2point 0 def
% font control
/FontSize 0 def
/FMS {/FontSize xstore findfont [FontSize 0 0 FontSize neg 0 0]
  makefont setfont} bdef
/reencode {exch dup where {pop load} {pop StandardEncoding} ifelse
  exch dup 3 1 roll findfont dup length dict begin
  { 1 index /FID ne {def}{pop pop} ifelse } forall
  /Encoding exch def currentdict end definefont pop} bdef
/isroman {findfont /CharStrings get /Agrave known} bdef
/FMSR {3 1 roll 1 index dup isroman {reencode} {pop pop} ifelse
  exch FMS} bdef
/csm {1 dpi2point div -1 dpi2point div scale neg translate
 dup landscapeMode eq {pop -90 rotate}
  {rotateMode eq {90 rotate} if} ifelse} bdef
% line types: solid, dotted, dashed, dotdash
/SO { [] 0 setdash } bdef
/DO { [.5 dpi2point mul 4 dpi2point mul] 0 setdash } bdef
/DA { [6 dpi2point mul] 0 setdash } bdef
/DD { [.5 dpi2point mul 4 dpi2point mul 6 dpi2point mul 4
  dpi2point mul] 0 setdash } bdef
% macros for lines and objects
/L {lineto stroke} bdef
/MP {3 1 roll moveto 1 sub {rlineto} repeat} bdef
/AP {{rlineto} repeat} bdef
/PDlw -1 def
/W {/PDlw currentlinewidth def setlinewidth} def
/PP {closepath eofill} bdef
/DP {closepath stroke} bdef
/MR {4 -2 roll moveto dup  0 exch rlineto exch 0 rlineto
  neg 0 exch rlineto closepath} bdef
/FR {MR stroke} bdef
/PR {MR fill} bdef
/L1i {{currentfile picstr readhexstring pop} image} bdef
/tMatrix matrix def
/MakeOval {newpath tMatrix currentmatrix pop translate scale
0 0 1 0 360 arc tMatrix setmatrix} bdef
/FO {MakeOval stroke} bdef
/PO {MakeOval fill} bdef
/PD {currentlinewidth 2 div 0 360 arc fill
   PDlw -1 eq not {PDlw w /PDlw -1 def} if} def
/FA {newpath tMatrix currentmatrix pop translate scale
  0 0 1 5 -2 roll arc tMatrix setmatrix stroke} bdef
/PA {newpath tMatrix currentmatrix pop	translate 0 0 moveto scale
  0 0 1 5 -2 roll arc closepath tMatrix setmatrix fill} bdef
/FAn {newpath tMatrix currentmatrix pop translate scale
  0 0 1 5 -2 roll arcn tMatrix setmatrix stroke} bdef
/PAn {newpath tMatrix currentmatrix pop translate 0 0 moveto scale
  0 0 1 5 -2 roll arcn closepath tMatrix setmatrix fill} bdef
/vradius 0 def /hradius 0 def /lry 0 def
/lrx 0 def /uly 0 def /ulx 0 def /rad 0 def
/MRR {/vradius xdef /hradius xdef /lry xdef /lrx xdef /uly xdef
  /ulx xdef newpath tMatrix currentmatrix pop ulx hradius add uly
  vradius add translate hradius vradius scale 0 0 1 180 270 arc 
  tMatrix setmatrix lrx hradius sub uly vradius add translate
  hradius vradius scale 0 0 1 270 360 arc tMatrix setmatrix
  lrx hradius sub lry vradius sub translate hradius vradius scale
  0 0 1 0 90 arc tMatrix setmatrix ulx hradius add lry vradius sub
  translate hradius vradius scale 0 0 1 90 180 arc tMatrix setmatrix
  closepath} bdef
/FRR {MRR stroke } bdef
/PRR {MRR fill } bdef
/MlrRR {/lry xdef /lrx xdef /uly xdef /ulx xdef /rad lry uly sub 2 div def
  newpath tMatrix currentmatrix pop ulx rad add uly rad add translate
  rad rad scale 0 0 1 90 270 arc tMatrix setmatrix lrx rad sub lry rad
  sub translate rad rad scale 0 0 1 270 90 arc tMatrix setmatrix
  closepath} bdef
/FlrRR {MlrRR stroke } bdef
/PlrRR {MlrRR fill } bdef
/MtbRR {/lry xdef /lrx xdef /uly xdef /ulx xdef /rad lrx ulx sub 2 div def
  newpath tMatrix currentmatrix pop ulx rad add uly rad add translate
  rad rad scale 0 0 1 180 360 arc tMatrix setmatrix lrx rad sub lry rad
  sub translate rad rad scale 0 0 1 0 180 arc tMatrix setmatrix
  closepath} bdef
/FtbRR {MtbRR stroke } bdef
/PtbRR {MtbRR fill } bdef
/stri 6 array def /dtri 6 array def
/smat 6 array def /dmat 6 array def
/tmat1 6 array def /tmat2 6 array def /dif 3 array def
/asub {/ind2 exch def /ind1 exch def dup dup
  ind1 get exch ind2 get sub exch } bdef
/tri_to_matrix {
  2 0 asub 3 1 asub 4 0 asub 5 1 asub
  dup 0 get exch 1 get 7 -1 roll astore } bdef
/compute_transform {
  dmat dtri tri_to_matrix tmat1 invertmatrix 
  smat stri tri_to_matrix tmat2 concatmatrix } bdef
/ds {stri astore pop} bdef
/dt {dtri astore pop} bdef
/db {2 copy /cols xdef /rows xdef mul dup 3 mul string
  currentfile exch readhexstring pop
  dup 0 3 index getinterval /rbmap xdef
  dup 2 index dup getinterval /gbmap xdef
  1 index dup 2 mul exch getinterval /bbmap xdef pop pop}bdef
/it {gs np dtri aload pop moveto lineto lineto cp c
  cols rows 8 compute_transform 
  rbmap gbmap bbmap true 3 colorimage gr}bdef
/il {newpath moveto lineto stroke}bdef
currentdict end def
%%EndProlog

%%BeginSetup
MathWorks begin

0 cap

end
%%EndSetup

%%Page: 1 1
%%BeginPageSetup
%%PageBoundingBox:    72   210   548   592
MathWorks begin
bpage
%%EndPageSetup

%%BeginObject: obj1
bplot

/dpi2point 12 def
portraitMode 0216 7344 csm

  659   240  5702  4577 MR c np
86 dict begin %Colortable dictionary
/c0 { 0.000000 0.000000 0.000000 sr} bdef
/c1 { 1.000000 1.000000 1.000000 sr} bdef
/c2 { 0.900000 0.000000 0.000000 sr} bdef
/c3 { 0.000000 0.820000 0.000000 sr} bdef
/c4 { 0.000000 0.000000 0.800000 sr} bdef
/c5 { 0.910000 0.820000 0.320000 sr} bdef
/c6 { 1.000000 0.260000 0.820000 sr} bdef
/c7 { 0.000000 0.820000 0.820000 sr} bdef
c0
1 j
1 sg
   0    0 6913 5186 PR
6 w
4 w
DO
SO
6 w
0 sg
 899 4615 mt 6255 4615 L
 899  389 mt 6255  389 L
 899 4615 mt  899  389 L
6255 4615 mt 6255  389 L
 899 4615 mt 6255 4615 L
 899 4615 mt  899  389 L
1441 4615 mt 1441 4561 L
1441  389 mt 1441  442 L
%%IncludeResource: font Helvetica
/Helvetica /ISOLatin1Encoding 180 FMSR

1287 4816 mt 
(-1) s
2500 4615 mt 2500 4561 L
2500  389 mt 2500  442 L
2271 4816 mt 
(-0.5) s
3559 4615 mt 3559 4561 L
3559  389 mt 3559  442 L
3509 4816 mt 
(0) s
4618 4615 mt 4618 4561 L
4618  389 mt 4618  442 L
4493 4816 mt 
(0.5) s
5678 4615 mt 5678 4561 L
5678  389 mt 5678  442 L
5628 4816 mt 
(1) s
 899 4615 mt  952 4615 L
6255 4615 mt 6201 4615 L
 659 4681 mt 
(-3) s
 899 4011 mt  952 4011 L
6255 4011 mt 6201 4011 L
 659 4077 mt 
(-2) s
 899 3407 mt  952 3407 L
6255 3407 mt 6201 3407 L
 659 3473 mt 
(-1) s
 899 2803 mt  952 2803 L
6255 2803 mt 6201 2803 L
 764 2869 mt 
(0) s
 899 2200 mt  952 2200 L
6255 2200 mt 6201 2200 L
 764 2266 mt 
(1) s
 899 1596 mt  952 1596 L
6255 1596 mt 6201 1596 L
 764 1662 mt 
(2) s
 899  992 mt  952  992 L
6255  992 mt 6201  992 L
 764 1058 mt 
(3) s
 899  389 mt  952  389 L
6255  389 mt 6201  389 L
 764  455 mt 
(4) s
 899 4615 mt 6255 4615 L
 899  389 mt 6255  389 L
 899 4615 mt  899  389 L
6255 4615 mt 6255  389 L
gs 899 389 5357 4227 MR c np
0.875 sg
27 117 28 119 28 114 27 103 28 88 28 70 27 52 28 34 
28 16 27 -5 28 -29 28 -59 27 -93 28 -126 28 -157 27 -182 
28 -198 28 -206 27 -209 28 -209 28 -203 28 -193 27 -176 28 -148 
28 -109 27 -61 28 -10 28 36 27 76 28 107 28 130 27 144 
28 153 28 156 27 152 28 142 28 126 27 102 28 74 28 43 
27 12 28 -14 28 -33 27 -39 28 -31 28 -7 27 25 28 58 
28 87 27 113 28 136 28 151 28 161 27 165 28 161 28 153 
27 138 28 113 28 79 27 39 28 -6 28 -48 27 -87 28 -119 
28 -143 27 -156 28 -163 28 -160 27 -152 28 -139 28 -124 27 -105 
28 -84 28 -63 27 -44 28 -27 28 -14 27 -3 28 7 28 13 
28 19 27 22 28 25 28 25 27 23 28 22 28 19 27 17 
28 18 28 24 27 34 28 50 28 70 27 91 28 106 28 114 
27 109 28 97 28 75 805 1695 100 MP
27 22 28 20 28 16 28 11 27 5 28 1 28 -4 27 -9 
28 -11 28 -12 27 -11 28 -8 28 -2 27 7 28 20 28 35 
27 56 28 79 28 103 27 123 28 134 28 138 27 134 28 121 
28 101 27 75 28 43 28 9 27 -27 28 -59 28 -84 28 -103 
27 -114 28 -123 28 -132 27 -138 28 -142 28 -142 27 -135 28 -124 
28 -107 27 -94 28 -85 28 -85 27 -90 28 -97 28 -101 27 -103 
28 -96 28 -85 27 -68 28 -48 28 -26 27 -3 28 23 28 49 
27 79 28 108 28 138 27 166 28 189 28 206 28 218 27 227 
28 230 28 229 27 221 28 202 28 177 27 144 28 109 28 74 
27 41 28 13 28 -10 27 -28 28 -40 28 -53 27 -64 28 -77 
28 -91 27 -105 28 -119 28 -131 27 -139 28 -145 28 -145 27 -142 
28 -133 28 -118 28 -97 27 -69 28 -40 28 -10 27 18 28 44 
28 66 27 84 28 100 28 111 100 AP
-28 -94 -27 -72 -28 -47 -28 -17 -27 13 -28 42 -28 67 -27 88 
-28 105 -28 117 -28 125 -27 129 -28 127 -28 121 -27 113 -28 102 
-28 94 -27 87 -28 80 -28 74 -27 68 -28 57 -28 45 -27 28 
-28 9 -28 -11 -27 -34 -28 -58 -28 -82 -27 -108 -28 -134 -28 -160 
-27 -183 -28 -206 -28 -222 -27 -229 -28 -228 -28 -217 -28 -201 -27 -181 
-28 -158 -28 -130 -27 -101 -28 -69 -28 -34 -27 -1 -28 29 -28 54 
-27 72 -28 85 -28 93 -27 98 -28 102 -28 106 -27 110 -28 113 
-28 113 -27 111 -28 108 -28 107 -27 113 -28 123 -28 134 -27 142 
-28 143 -28 131 -27 108 -28 76 -28 39 -28 5 -27 -26 -28 -51 
-28 -70 -27 -85 -28 -94 -28 -98 -27 -99 -28 -98 -28 -98 -27 -100 
-28 -107 -28 -115 -27 -124 -28 -130 -28 -132 -27 -131 -28 -128 -28 -120 
-27 -109 -28 -95 -28 -77 -27 -55 -28 -30 -28 -6 -27 19 -28 43 
-28 65 -28 81 -27 95 0 1162 100 AP
-28 0 -28 10 -27 16 -28 16 -28 12 -27 4 -28 -6 -28 -10 
-27 -9 -28 -1 -28 13 -27 31 -28 47 -28 63 -27 75 -28 82 
-28 87 -27 88 -28 85 -28 82 -28 78 -27 74 -28 72 -28 71 
-27 72 -28 73 -28 77 -27 83 -28 93 -28 104 -27 113 -28 121 
-28 125 -27 123 -28 116 -28 103 -27 82 -28 55 -28 23 -27 -14 
-28 -55 -28 -96 -27 -137 -28 -169 -28 -188 -27 -192 -28 -181 -28 -157 
-28 -124 -27 -88 -28 -53 -28 -23 -27 -6 -28 -1 -28 -5 -27 -10 
-28 -20 -28 -31 -27 -48 -28 -66 -28 -89 -27 -112 -28 -133 -28 -151 
-27 -163 -28 -164 -28 -156 -27 -135 -28 -106 -28 -71 -27 -31 -28 7 
-28 41 -27 72 -28 101 -28 131 -27 162 -28 189 -28 209 -28 219 
-27 218 -28 206 -28 187 -27 166 -28 144 -28 124 -27 101 -28 77 
-28 50 -27 18 -28 -14 -28 -47 -27 -73 -28 -93 -28 -108 -27 -117 
-28 -121 -28 -122 -27 -119 -28 -109 100 AP
PP
24 w
0 -2069 -28 0 -28 10 -27 16 -28 16 -28 12 -27 4 -28 -6 
-28 -10 -27 -9 -28 -1 -28 13 -27 31 -28 47 -28 63 -27 75 
-28 82 -28 87 -27 88 -28 85 -28 82 -28 78 -27 74 -28 72 
-28 71 -27 72 -28 73 -28 77 -27 83 -28 93 -28 104 -27 113 
-28 121 -28 125 -27 123 -28 116 -28 103 -27 82 -28 55 -28 23 
-27 -14 -28 -55 -28 -96 -27 -137 -28 -169 -28 -188 -27 -192 -28 -181 
-28 -157 -28 -124 -27 -88 -28 -53 -28 -23 -27 -6 -28 -1 -28 -5 
-27 -10 -28 -20 -28 -31 -27 -48 -28 -66 -28 -89 -27 -112 -28 -133 
-28 -151 -27 -163 -28 -164 -28 -156 -27 -135 -28 -106 -28 -71 -27 -31 
-28 7 -28 41 -27 72 -28 101 -28 131 -27 162 -28 189 -28 209 
-28 219 -27 218 -28 206 -28 187 -27 166 -28 144 -28 124 -27 101 
-28 77 -28 50 -27 18 -28 -14 -28 -47 -27 -73 -28 -93 -28 -108 
-27 -117 -28 -121 -28 -122 3518 2669 100 MP stroke
-27 -119 -28 -109 -28 -94 -27 -72 -28 -47 -28 -17 -27 13 -28 42 
-28 67 -27 88 -28 105 -28 117 -28 125 -27 129 -28 127 -28 121 
-27 113 -28 102 -28 94 -27 87 -28 80 -28 74 -27 68 -28 57 
-28 45 -27 28 -28 9 -28 -11 -27 -34 -28 -58 -28 -82 -27 -108 
-28 -134 -28 -160 -27 -183 -28 -206 -28 -222 -27 -229 -28 -228 -28 -217 
-28 -201 -27 -181 -28 -158 -28 -130 -27 -101 -28 -69 -28 -34 -27 -1 
-28 29 -28 54 -27 72 -28 85 -28 93 -27 98 -28 102 -28 106 
-27 110 -28 113 -28 113 -27 111 -28 108 -28 107 -27 113 -28 123 
-28 134 -27 142 -28 143 -28 131 -27 108 -28 76 -28 39 -28 5 
-27 -26 -28 -51 -28 -70 -27 -85 -28 -94 -28 -98 -27 -99 -28 -98 
-28 -98 -27 -100 -28 -107 -28 -115 -27 -124 -28 -130 -28 -132 -27 -131 
-28 -128 -28 -120 -27 -109 -28 -95 -28 -77 -27 -55 -28 -30 -28 -6 
-27 19 -28 43 -28 65 6258 3919 100 MP stroke
-28 81 -27 95 0 1162 27 22 28 20 28 16 28 11 27 5 
28 1 28 -4 27 -9 28 -11 28 -12 27 -11 28 -8 28 -2 
27 7 28 20 28 35 27 56 28 79 28 103 27 123 28 134 
28 138 27 134 28 121 28 101 27 75 28 43 28 9 27 -27 
28 -59 28 -84 28 -103 27 -114 28 -123 28 -132 27 -138 28 -142 
28 -142 27 -135 28 -124 28 -107 27 -94 28 -85 28 -85 27 -90 
28 -97 28 -101 27 -103 28 -96 28 -85 27 -68 28 -48 28 -26 
27 -3 28 23 28 49 27 79 28 108 28 138 27 166 28 189 
28 206 28 218 27 227 28 230 28 229 27 221 28 202 28 177 
27 144 28 109 28 74 27 41 28 13 28 -10 27 -28 28 -40 
28 -53 27 -64 28 -77 28 -91 27 -105 28 -119 28 -131 27 -139 
28 -145 28 -145 27 -142 28 -133 28 -118 28 -97 27 -69 28 -40 
28 -10 27 18 28 44 3656 2647 100 MP stroke
28 66 27 84 28 100 28 111 27 117 28 119 28 114 27 103 
28 88 28 70 27 52 28 34 28 16 27 -5 28 -29 28 -59 
27 -93 28 -126 28 -157 27 -182 28 -198 28 -206 27 -209 28 -209 
28 -203 28 -193 27 -176 28 -148 28 -109 27 -61 28 -10 28 36 
27 76 28 107 28 130 27 144 28 153 28 156 27 152 28 142 
28 126 27 102 28 74 28 43 27 12 28 -14 28 -33 27 -39 
28 -31 28 -7 27 25 28 58 28 87 27 113 28 136 28 151 
28 161 27 165 28 161 28 153 27 138 28 113 28 79 27 39 
28 -6 28 -48 27 -87 28 -119 28 -143 27 -156 28 -163 28 -160 
27 -152 28 -139 28 -124 27 -105 28 -84 28 -63 27 -44 28 -27 
28 -14 27 -3 28 7 28 13 28 19 27 22 28 25 28 25 
27 23 28 22 28 19 27 17 28 18 28 24 27 34 28 50 
28 70 27 91 28 106 916 2090 100 MP stroke
28 114 27 109 28 97 28 75 805 1695 5 MP stroke
0 sg
26 -23 28 -16 27 -6 28 3 28 13 27 23 28 33 28 41 
27 49 28 57 28 62 27 70 28 75 28 83 27 90 28 97 
28 105 27 111 28 117 28 118 27 116 28 110 28 97 27 80 
28 57 28 29 27 0 28 -32 28 -62 28 -89 27 -111 28 -127 
28 -137 27 -140 28 -139 28 -132 27 -124 28 -115 28 -108 27 -102 
28 -100 28 -98 27 -100 28 -102 28 -102 27 -100 28 -94 28 -85 
27 -70 28 -51 28 -28 27 -1 28 28 28 59 27 90 28 120 
28 148 27 173 28 195 28 211 28 223 27 228 28 227 28 217 
27 202 28 181 28 155 27 126 28 96 28 66 27 37 28 13 
28 -10 27 -28 28 -43 28 -55 27 -65 28 -76 28 -85 27 -96 
28 -107 28 -117 27 -126 28 -132 28 -137 27 -135 28 -129 28 -118 
28 -100 27 -79 28 -54 28 -26 27 3 28 30 28 57 27 78 
28 97 28 110 27 118 3518 2419 100 MP stroke
28 120 28 118 27 110 28 98 28 82 27 62 28 40 28 15 
27 -11 28 -39 28 -69 27 -97 28 -124 28 -151 27 -174 28 -192 
28 -207 27 -213 28 -214 28 -206 28 -191 27 -169 28 -140 28 -105 
27 -66 28 -26 28 15 27 54 28 88 28 118 27 140 28 154 
28 160 27 158 28 147 28 129 27 107 28 82 28 54 27 30 
28 8 28 -6 27 -15 28 -13 28 -2 27 15 28 40 28 70 
27 101 28 130 28 154 28 171 27 178 28 175 28 161 27 137 
28 105 28 67 27 26 28 -14 28 -52 27 -84 28 -111 28 -129 
27 -140 28 -144 28 -140 27 -133 28 -122 28 -108 27 -94 28 -80 
28 -69 27 -57 28 -49 28 -43 27 -39 28 -36 28 -34 28 -33 
27 -33 28 -31 28 -29 27 -26 28 -20 28 -14 27 -7 28 3 
28 12 27 21 28 31 28 38 27 43 28 47 17 31 899 2875 96 MP stroke
gr

24 w
2179 4195 mt 2263 4279 L
2263 4195 mt 2179 4279 L
gs 899 389 5357 4227 MR c np
gr

 995 4195 mt 1079 4279 L
1079 4195 mt  995 4279 L
gs 899 389 5357 4227 MR c np
gr

1880 4195 mt 1964 4279 L
1964 4195 mt 1880 4279 L
gs 899 389 5357 4227 MR c np
gr

2174 4195 mt 2258 4279 L
2258 4195 mt 2174 4279 L
gs 899 389 5357 4227 MR c np
gr

1878 4195 mt 1962 4279 L
1962 4195 mt 1878 4279 L
gs 899 389 5357 4227 MR c np
gr

2187 4195 mt 2271 4279 L
2271 4195 mt 2187 4279 L
gs 899 389 5357 4227 MR c np
gr

2262 4195 mt 2346 4279 L
2346 4195 mt 2262 4279 L
gs 899 389 5357 4227 MR c np
gr

2304 4195 mt 2388 4279 L
2388 4195 mt 2304 4279 L
gs 899 389 5357 4227 MR c np
gr

4332 4195 mt 4416 4279 L
4416 4195 mt 4332 4279 L
gs 899 389 5357 4227 MR c np
gr

3100 4195 mt 3184 4279 L
3184 4195 mt 3100 4279 L
gs 899 389 5357 4227 MR c np
gr

2744 4195 mt 2828 4279 L
2828 4195 mt 2744 4279 L
gs 899 389 5357 4227 MR c np
gr

3959 4195 mt 4043 4279 L
4043 4195 mt 3959 4279 L
gs 899 389 5357 4227 MR c np
gr

3717 4195 mt 3801 4279 L
3801 4195 mt 3717 4279 L
gs 899 389 5357 4227 MR c np
gr

2903 4195 mt 2987 4279 L
2987 4195 mt 2903 4279 L
gs 899 389 5357 4227 MR c np
gr

2331 4195 mt 2415 4279 L
2415 4195 mt 2331 4279 L
gs 899 389 5357 4227 MR c np
gr

4539 4195 mt 4623 4279 L
4623 4195 mt 4539 4279 L
gs 899 389 5357 4227 MR c np
gr

4539 4195 mt 4623 4279 L
4623 4195 mt 4539 4279 L
gs 899 389 5357 4227 MR c np
gr

4539 4195 mt 4623 4279 L
4623 4195 mt 4539 4279 L
gs 899 389 5357 4227 MR c np
gr

3332 4195 mt 3416 4279 L
3416 4195 mt 3332 4279 L
gs 899 389 5357 4227 MR c np
gr

4824 4195 mt 4908 4279 L
4908 4195 mt 4824 4279 L
gs 899 389 5357 4227 MR c np
gr

5425 4195 mt 5509 4279 L
5509 4195 mt 5425 4279 L
gs 899 389 5357 4227 MR c np
gr

3778 4195 mt 3862 4279 L
3862 4195 mt 3778 4279 L
gs 899 389 5357 4227 MR c np
gr

4540 4195 mt 4624 4279 L
4624 4195 mt 4540 4279 L
gs 899 389 5357 4227 MR c np
gr

4539 4195 mt 4623 4279 L
4623 4195 mt 4539 4279 L
gs 899 389 5357 4227 MR c np
gr

5110 4195 mt 5194 4279 L
5194 4195 mt 5110 4279 L
gs 899 389 5357 4227 MR c np
gr

5110 4195 mt 5194 4279 L
5194 4195 mt 5110 4279 L
gs 899 389 5357 4227 MR c np
gr

5211 4195 mt 5295 4279 L
5295 4195 mt 5211 4279 L
gs 899 389 5357 4227 MR c np
gr

5343 4195 mt 5427 4279 L
5427 4195 mt 5343 4279 L
gs 899 389 5357 4227 MR c np
gr

6124 4195 mt 6208 4279 L
6208 4195 mt 6124 4279 L
gs 899 389 5357 4227 MR c np
6 w
gr

6 w

end %%Color Dict

eplot
%%EndObject

epage
end

showpage

%%Trailer
%%EOF
