%!PS-Adobe-2.0 EPSF-1.2
%%Creator: MATLAB, The MathWorks, Inc. Version 7.14.0.739 (R2012a). Operating System: Linux 3.0.0-16-generic #29-Ubuntu SMP Tue Feb 14 12:49:42 UTC 2012 i686.
%%Title: ./results/toyPredictionPITC5.eps
%%CreationDate: 04/16/2012  18:23:25
%%DocumentNeededFonts: Helvetica
%%DocumentProcessColors: Cyan Magenta Yellow Black
%%Extensions: CMYK
%%Pages: 1
%%BoundingBox:    72   210   548   592
%%EndComments

%%BeginProlog
% MathWorks dictionary
/MathWorks 160 dict begin
% definition operators
/bdef {bind def} bind def
/ldef {load def} bind def
/xdef {exch def} bdef
/xstore {exch store} bdef
% operator abbreviations
/c  /clip ldef
/cc /concat ldef
/cp /closepath ldef
/gr /grestore ldef
/gs /gsave ldef
/mt /moveto ldef
/np /newpath ldef
/cm /currentmatrix ldef
/sm /setmatrix ldef
/rm /rmoveto ldef
/rl /rlineto ldef
/s {show newpath} bdef
/sc {setcmykcolor} bdef
/sr /setrgbcolor ldef
/sg /setgray ldef
/w /setlinewidth ldef
/j /setlinejoin ldef
/cap /setlinecap ldef
/rc {rectclip} bdef
/rf {rectfill} bdef
% page state control
/pgsv () def
/bpage {/pgsv save def} bdef
/epage {pgsv restore} bdef
/bplot /gsave ldef
/eplot {stroke grestore} bdef
% orientation switch
/portraitMode 0 def /landscapeMode 1 def /rotateMode 2 def
% coordinate system mappings
/dpi2point 0 def
% font control
/FontSize 0 def
/FMS {/FontSize xstore findfont [FontSize 0 0 FontSize neg 0 0]
  makefont setfont} bdef
/reencode {exch dup where {pop load} {pop StandardEncoding} ifelse
  exch dup 3 1 roll findfont dup length dict begin
  { 1 index /FID ne {def}{pop pop} ifelse } forall
  /Encoding exch def currentdict end definefont pop} bdef
/isroman {findfont /CharStrings get /Agrave known} bdef
/FMSR {3 1 roll 1 index dup isroman {reencode} {pop pop} ifelse
  exch FMS} bdef
/csm {1 dpi2point div -1 dpi2point div scale neg translate
 dup landscapeMode eq {pop -90 rotate}
  {rotateMode eq {90 rotate} if} ifelse} bdef
% line types: solid, dotted, dashed, dotdash
/SO { [] 0 setdash } bdef
/DO { [.5 dpi2point mul 4 dpi2point mul] 0 setdash } bdef
/DA { [6 dpi2point mul] 0 setdash } bdef
/DD { [.5 dpi2point mul 4 dpi2point mul 6 dpi2point mul 4
  dpi2point mul] 0 setdash } bdef
% macros for lines and objects
/L {lineto stroke} bdef
/MP {3 1 roll moveto 1 sub {rlineto} repeat} bdef
/AP {{rlineto} repeat} bdef
/PDlw -1 def
/W {/PDlw currentlinewidth def setlinewidth} def
/PP {closepath eofill} bdef
/DP {closepath stroke} bdef
/MR {4 -2 roll moveto dup  0 exch rlineto exch 0 rlineto
  neg 0 exch rlineto closepath} bdef
/FR {MR stroke} bdef
/PR {MR fill} bdef
/L1i {{currentfile picstr readhexstring pop} image} bdef
/tMatrix matrix def
/MakeOval {newpath tMatrix currentmatrix pop translate scale
0 0 1 0 360 arc tMatrix setmatrix} bdef
/FO {MakeOval stroke} bdef
/PO {MakeOval fill} bdef
/PD {currentlinewidth 2 div 0 360 arc fill
   PDlw -1 eq not {PDlw w /PDlw -1 def} if} def
/FA {newpath tMatrix currentmatrix pop translate scale
  0 0 1 5 -2 roll arc tMatrix setmatrix stroke} bdef
/PA {newpath tMatrix currentmatrix pop	translate 0 0 moveto scale
  0 0 1 5 -2 roll arc closepath tMatrix setmatrix fill} bdef
/FAn {newpath tMatrix currentmatrix pop translate scale
  0 0 1 5 -2 roll arcn tMatrix setmatrix stroke} bdef
/PAn {newpath tMatrix currentmatrix pop translate 0 0 moveto scale
  0 0 1 5 -2 roll arcn closepath tMatrix setmatrix fill} bdef
/vradius 0 def /hradius 0 def /lry 0 def
/lrx 0 def /uly 0 def /ulx 0 def /rad 0 def
/MRR {/vradius xdef /hradius xdef /lry xdef /lrx xdef /uly xdef
  /ulx xdef newpath tMatrix currentmatrix pop ulx hradius add uly
  vradius add translate hradius vradius scale 0 0 1 180 270 arc 
  tMatrix setmatrix lrx hradius sub uly vradius add translate
  hradius vradius scale 0 0 1 270 360 arc tMatrix setmatrix
  lrx hradius sub lry vradius sub translate hradius vradius scale
  0 0 1 0 90 arc tMatrix setmatrix ulx hradius add lry vradius sub
  translate hradius vradius scale 0 0 1 90 180 arc tMatrix setmatrix
  closepath} bdef
/FRR {MRR stroke } bdef
/PRR {MRR fill } bdef
/MlrRR {/lry xdef /lrx xdef /uly xdef /ulx xdef /rad lry uly sub 2 div def
  newpath tMatrix currentmatrix pop ulx rad add uly rad add translate
  rad rad scale 0 0 1 90 270 arc tMatrix setmatrix lrx rad sub lry rad
  sub translate rad rad scale 0 0 1 270 90 arc tMatrix setmatrix
  closepath} bdef
/FlrRR {MlrRR stroke } bdef
/PlrRR {MlrRR fill } bdef
/MtbRR {/lry xdef /lrx xdef /uly xdef /ulx xdef /rad lrx ulx sub 2 div def
  newpath tMatrix currentmatrix pop ulx rad add uly rad add translate
  rad rad scale 0 0 1 180 360 arc tMatrix setmatrix lrx rad sub lry rad
  sub translate rad rad scale 0 0 1 0 180 arc tMatrix setmatrix
  closepath} bdef
/FtbRR {MtbRR stroke } bdef
/PtbRR {MtbRR fill } bdef
/stri 6 array def /dtri 6 array def
/smat 6 array def /dmat 6 array def
/tmat1 6 array def /tmat2 6 array def /dif 3 array def
/asub {/ind2 exch def /ind1 exch def dup dup
  ind1 get exch ind2 get sub exch } bdef
/tri_to_matrix {
  2 0 asub 3 1 asub 4 0 asub 5 1 asub
  dup 0 get exch 1 get 7 -1 roll astore } bdef
/compute_transform {
  dmat dtri tri_to_matrix tmat1 invertmatrix 
  smat stri tri_to_matrix tmat2 concatmatrix } bdef
/ds {stri astore pop} bdef
/dt {dtri astore pop} bdef
/db {2 copy /cols xdef /rows xdef mul dup 3 mul string
  currentfile exch readhexstring pop
  dup 0 3 index getinterval /rbmap xdef
  dup 2 index dup getinterval /gbmap xdef
  1 index dup 2 mul exch getinterval /bbmap xdef pop pop}bdef
/it {gs np dtri aload pop moveto lineto lineto cp c
  cols rows 8 compute_transform 
  rbmap gbmap bbmap true 3 colorimage gr}bdef
/il {newpath moveto lineto stroke}bdef
currentdict end def
%%EndProlog

%%BeginSetup
MathWorks begin

0 cap

end
%%EndSetup

%%Page: 1 1
%%BeginPageSetup
%%PageBoundingBox:    72   210   548   592
MathWorks begin
bpage
%%EndPageSetup

%%BeginObject: obj1
bplot

/dpi2point 12 def
portraitMode 0216 7344 csm

  659   240  5702  4577 MR c np
86 dict begin %Colortable dictionary
/c0 { 0.000000 0.000000 0.000000 sr} bdef
/c1 { 1.000000 1.000000 1.000000 sr} bdef
/c2 { 0.900000 0.000000 0.000000 sr} bdef
/c3 { 0.000000 0.820000 0.000000 sr} bdef
/c4 { 0.000000 0.000000 0.800000 sr} bdef
/c5 { 0.910000 0.820000 0.320000 sr} bdef
/c6 { 1.000000 0.260000 0.820000 sr} bdef
/c7 { 0.000000 0.820000 0.820000 sr} bdef
c0
1 j
1 sg
   0    0 6913 5186 PR
6 w
4 w
DO
SO
6 w
0 sg
 899 4615 mt 6255 4615 L
 899  389 mt 6255  389 L
 899 4615 mt  899  389 L
6255 4615 mt 6255  389 L
 899 4615 mt 6255 4615 L
 899 4615 mt  899  389 L
1441 4615 mt 1441 4561 L
1441  389 mt 1441  442 L
%%IncludeResource: font Helvetica
/Helvetica /ISOLatin1Encoding 180 FMSR

1287 4816 mt 
(-1) s
2500 4615 mt 2500 4561 L
2500  389 mt 2500  442 L
2271 4816 mt 
(-0.5) s
3559 4615 mt 3559 4561 L
3559  389 mt 3559  442 L
3509 4816 mt 
(0) s
4618 4615 mt 4618 4561 L
4618  389 mt 4618  442 L
4493 4816 mt 
(0.5) s
5678 4615 mt 5678 4561 L
5678  389 mt 5678  442 L
5628 4816 mt 
(1) s
 899 4615 mt  952 4615 L
6255 4615 mt 6201 4615 L
 659 4681 mt 
(-8) s
 899 4145 mt  952 4145 L
6255 4145 mt 6201 4145 L
 659 4211 mt 
(-6) s
 899 3675 mt  952 3675 L
6255 3675 mt 6201 3675 L
 659 3741 mt 
(-4) s
 899 3206 mt  952 3206 L
6255 3206 mt 6201 3206 L
 659 3272 mt 
(-2) s
 899 2736 mt  952 2736 L
6255 2736 mt 6201 2736 L
 764 2802 mt 
(0) s
 899 2267 mt  952 2267 L
6255 2267 mt 6201 2267 L
 764 2333 mt 
(2) s
 899 1797 mt  952 1797 L
6255 1797 mt 6201 1797 L
 764 1863 mt 
(4) s
 899 1328 mt  952 1328 L
6255 1328 mt 6201 1328 L
 764 1394 mt 
(6) s
 899  858 mt  952  858 L
6255  858 mt 6201  858 L
 764  924 mt 
(8) s
 899  389 mt  952  389 L
6255  389 mt 6201  389 L
 664  455 mt 
(10) s
 899 4615 mt 6255 4615 L
 899  389 mt 6255  389 L
 899 4615 mt  899  389 L
6255 4615 mt 6255  389 L
gs 899 389 5357 4227 MR c np
0.875 sg
27 69 28 62 28 52 27 44 28 36 28 29 27 20 28 10 
28 -4 27 -23 28 -45 28 -70 27 -95 28 -117 28 -138 27 -154 
28 -167 28 -173 27 -177 28 -174 28 -167 28 -154 27 -134 28 -108 
28 -76 27 -39 28 0 28 37 27 70 28 97 28 116 27 127 
28 130 28 125 27 115 28 99 28 80 27 60 28 39 28 21 
27 8 28 -1 28 -2 27 4 28 17 28 37 27 60 28 82 
28 102 27 116 28 125 28 129 28 126 27 119 28 108 28 95 
27 87 28 83 28 82 27 78 28 68 28 53 27 33 28 10 
28 -11 27 -31 28 -48 28 -61 27 -71 28 -77 28 -79 27 -79 
28 -77 28 -73 27 -70 28 -65 28 -63 27 -61 28 -59 28 -60 
28 -61 27 -62 28 -64 28 -64 27 -62 28 -58 28 -51 27 -39 
28 -23 28 -3 27 18 28 37 28 55 27 67 28 75 28 77 
27 75 28 70 28 63 805 1701 100 MP
27 -60 28 -53 28 -42 28 -28 27 -11 28 8 28 27 27 45 
28 60 28 73 27 82 28 88 28 93 27 96 28 96 28 96 
27 94 28 91 28 86 27 78 28 69 28 56 27 41 28 23 
28 4 27 -18 28 -38 28 -59 27 -77 28 -91 28 -102 28 -109 
27 -111 28 -114 28 -116 27 -121 28 -124 28 -126 27 -124 28 -120 
28 -111 27 -101 28 -93 28 -86 27 -83 28 -82 28 -80 27 -78 
28 -73 28 -62 27 -49 28 -29 28 -8 27 16 28 38 28 59 
27 79 28 95 28 112 27 128 28 145 28 163 28 182 27 197 
28 206 28 206 27 200 28 187 28 170 27 153 28 132 28 110 
27 86 28 60 28 32 27 4 28 -24 28 -52 27 -76 28 -98 
28 -115 27 -128 28 -135 28 -139 27 -138 28 -136 28 -129 27 -120 
28 -106 28 -86 28 -61 27 -32 28 -2 28 23 27 44 28 60 
28 71 27 77 28 78 28 75 100 AP
-28 -57 -27 -31 -28 -4 -28 23 -27 47 -28 66 -28 80 -27 89 
-28 92 -28 94 -28 96 -27 98 -28 97 -28 93 -27 88 -28 78 
-28 69 -27 61 -28 52 -28 47 -27 41 -28 37 -28 31 -27 23 
-28 12 -28 -2 -27 -21 -28 -43 -28 -66 -27 -91 -28 -112 -28 -132 
-27 -149 -28 -163 -28 -177 -27 -188 -28 -198 -28 -201 -28 -194 -27 -179 
-28 -156 -28 -129 -27 -99 -28 -69 -28 -42 -27 -16 -28 4 -28 24 
-27 41 -28 57 -28 73 -27 88 -28 103 -28 116 -27 124 -28 130 
-28 132 -27 131 -28 127 -28 122 -27 121 -28 118 -28 115 -27 110 
-28 98 -28 79 -27 53 -28 23 -28 -9 -28 -39 -27 -66 -28 -90 
-28 -110 -27 -123 -28 -133 -28 -139 -27 -139 -28 -137 -28 -131 -27 -122 
-28 -113 -28 -101 -27 -88 -28 -75 -28 -62 -27 -49 -28 -36 -28 -25 
-27 -16 -28 -8 -28 -3 -27 -1 -28 -2 -28 -5 -27 -7 -28 -10 
-28 -11 -28 -11 -27 -8 0 1888 100 AP
-28 3 -28 5 -27 6 -28 7 -28 6 -27 4 -28 -1 -28 -9 
-27 -18 -28 -26 -28 -33 -27 -35 -28 -35 -28 -31 -27 -24 -28 -16 
-28 -7 -27 3 -28 13 -28 22 -28 32 -27 43 -28 52 -28 64 
-27 75 -28 87 -28 101 -27 115 -28 128 -28 142 -27 153 -28 162 
-28 167 -27 168 -28 163 -28 152 -27 133 -28 107 -28 72 -27 29 
-28 -18 -28 -62 -27 -99 -28 -120 -28 -129 -27 -126 -28 -118 -28 -103 
-28 -88 -27 -72 -28 -60 -28 -52 -27 -50 -28 -56 -28 -63 -27 -75 
-28 -85 -28 -96 -27 -108 -28 -116 -28 -124 -27 -127 -28 -127 -28 -122 
-27 -112 -28 -98 -28 -80 -27 -59 -28 -36 -28 -13 -27 12 -28 34 
-28 55 -27 75 -28 94 -28 114 -27 131 -28 148 -28 160 -28 169 
-27 171 -28 167 -28 159 -27 146 -28 129 -28 111 -27 90 -28 69 
-28 45 -27 21 -28 -6 -28 -35 -27 -62 -28 -88 -28 -105 -27 -117 
-28 -119 -28 -113 -27 -101 -28 -81 100 AP
PP
24 w
0 -2006 -28 3 -28 5 -27 6 -28 7 -28 6 -27 4 -28 -1 
-28 -9 -27 -18 -28 -26 -28 -33 -27 -35 -28 -35 -28 -31 -27 -24 
-28 -16 -28 -7 -27 3 -28 13 -28 22 -28 32 -27 43 -28 52 
-28 64 -27 75 -28 87 -28 101 -27 115 -28 128 -28 142 -27 153 
-28 162 -28 167 -27 168 -28 163 -28 152 -27 133 -28 107 -28 72 
-27 29 -28 -18 -28 -62 -27 -99 -28 -120 -28 -129 -27 -126 -28 -118 
-28 -103 -28 -88 -27 -72 -28 -60 -28 -52 -27 -50 -28 -56 -28 -63 
-27 -75 -28 -85 -28 -96 -27 -108 -28 -116 -28 -124 -27 -127 -28 -127 
-28 -122 -27 -112 -28 -98 -28 -80 -27 -59 -28 -36 -28 -13 -27 12 
-28 34 -28 55 -27 75 -28 94 -28 114 -27 131 -28 148 -28 160 
-28 169 -27 171 -28 167 -28 159 -27 146 -28 129 -28 111 -27 90 
-28 69 -28 45 -27 21 -28 -6 -28 -35 -27 -62 -28 -88 -28 -105 
-27 -117 -28 -119 -28 -113 3518 2867 100 MP stroke
-27 -101 -28 -81 -28 -57 -27 -31 -28 -4 -28 23 -27 47 -28 66 
-28 80 -27 89 -28 92 -28 94 -28 96 -27 98 -28 97 -28 93 
-27 88 -28 78 -28 69 -27 61 -28 52 -28 47 -27 41 -28 37 
-28 31 -27 23 -28 12 -28 -2 -27 -21 -28 -43 -28 -66 -27 -91 
-28 -112 -28 -132 -27 -149 -28 -163 -28 -177 -27 -188 -28 -198 -28 -201 
-28 -194 -27 -179 -28 -156 -28 -129 -27 -99 -28 -69 -28 -42 -27 -16 
-28 4 -28 24 -27 41 -28 57 -28 73 -27 88 -28 103 -28 116 
-27 124 -28 130 -28 132 -27 131 -28 127 -28 122 -27 121 -28 118 
-28 115 -27 110 -28 98 -28 79 -27 53 -28 23 -28 -9 -28 -39 
-27 -66 -28 -90 -28 -110 -27 -123 -28 -133 -28 -139 -27 -139 -28 -137 
-28 -131 -27 -122 -28 -113 -28 -101 -27 -88 -28 -75 -28 -62 -27 -49 
-28 -36 -28 -25 -27 -16 -28 -8 -28 -3 -27 -1 -28 -2 -28 -5 
-27 -7 -28 -10 -28 -11 6258 4015 100 MP stroke
-28 -11 -27 -8 0 1888 27 -60 28 -53 28 -42 28 -28 27 -11 
28 8 28 27 27 45 28 60 28 73 27 82 28 88 28 93 
27 96 28 96 28 96 27 94 28 91 28 86 27 78 28 69 
28 56 27 41 28 23 28 4 27 -18 28 -38 28 -59 27 -77 
28 -91 28 -102 28 -109 27 -111 28 -114 28 -116 27 -121 28 -124 
28 -126 27 -124 28 -120 28 -111 27 -101 28 -93 28 -86 27 -83 
28 -82 28 -80 27 -78 28 -73 28 -62 27 -49 28 -29 28 -8 
27 16 28 38 28 59 27 79 28 95 28 112 27 128 28 145 
28 163 28 182 27 197 28 206 28 206 27 200 28 187 28 170 
27 153 28 132 28 110 27 86 28 60 28 32 27 4 28 -24 
28 -52 27 -76 28 -98 28 -115 27 -128 28 -135 28 -139 27 -138 
28 -136 28 -129 27 -120 28 -106 28 -86 28 -61 27 -32 28 -2 
28 23 27 44 28 60 3656 2109 100 MP stroke
28 71 27 77 28 78 28 75 27 69 28 62 28 52 27 44 
28 36 28 29 27 20 28 10 28 -4 27 -23 28 -45 28 -70 
27 -95 28 -117 28 -138 27 -154 28 -167 28 -173 27 -177 28 -174 
28 -167 28 -154 27 -134 28 -108 28 -76 27 -39 28 0 28 37 
27 70 28 97 28 116 27 127 28 130 28 125 27 115 28 99 
28 80 27 60 28 39 28 21 27 8 28 -1 28 -2 27 4 
28 17 28 37 27 60 28 82 28 102 27 116 28 125 28 129 
28 126 27 119 28 108 28 95 27 87 28 83 28 82 27 78 
28 68 28 53 27 33 28 10 28 -11 27 -31 28 -48 28 -61 
27 -71 28 -77 28 -79 27 -79 28 -77 28 -73 27 -70 28 -65 
28 -63 27 -61 28 -59 28 -60 28 -61 27 -62 28 -64 28 -64 
27 -62 28 -58 28 -51 27 -39 28 -23 28 -3 27 18 28 37 
28 55 27 67 28 75 916 1986 100 MP stroke
28 77 27 75 28 70 28 63 805 1701 5 MP stroke
0 sg
26 -15 28 -9 27 -1 28 6 28 14 27 23 28 32 28 40 
27 49 28 57 28 65 27 72 28 79 28 86 27 91 28 96 
28 99 27 100 28 100 28 97 27 90 28 80 28 69 27 53 
28 35 28 16 27 -5 28 -27 28 -46 28 -66 27 -82 28 -97 
28 -107 27 -115 28 -119 28 -123 27 -122 28 -121 28 -119 27 -116 
28 -112 28 -108 27 -104 28 -99 28 -91 27 -84 28 -73 28 -59 
27 -45 28 -26 28 -7 27 17 28 39 28 65 27 88 28 112 
28 135 27 153 28 170 28 181 28 190 27 193 28 191 28 185 
27 174 28 160 28 141 27 122 28 99 28 76 27 54 28 31 
28 10 27 -9 28 -28 28 -44 27 -59 28 -72 28 -84 27 -94 
28 -103 28 -108 27 -113 28 -115 28 -113 27 -108 28 -102 28 -90 
28 -76 27 -60 28 -41 28 -22 27 -1 28 18 28 37 27 54 
28 68 28 78 27 85 3518 2303 100 MP stroke
28 87 28 86 27 81 28 70 28 58 27 41 28 23 28 1 
27 -22 28 -45 28 -70 27 -92 28 -114 28 -134 27 -150 28 -162 
28 -171 27 -173 28 -172 28 -164 28 -150 27 -133 28 -111 28 -85 
27 -57 28 -27 28 1 27 29 28 55 28 76 27 93 28 105 
28 112 27 113 28 111 28 103 27 93 28 82 28 69 27 57 
28 48 28 42 27 39 28 40 28 46 27 56 28 67 28 80 
27 94 28 107 28 116 28 122 27 123 28 118 28 108 27 92 
28 73 28 50 27 24 28 -1 28 -27 27 -51 28 -70 28 -87 
27 -100 28 -108 28 -111 27 -112 28 -109 28 -104 27 -97 28 -89 
28 -80 27 -73 28 -64 28 -58 27 -51 28 -46 28 -41 28 -37 
27 -33 28 -28 28 -24 27 -19 28 -14 28 -8 27 -1 28 5 
28 11 27 18 28 23 28 28 27 32 28 34 17 22 899 2814 96 MP stroke
6 w
gr

40 W
1441 3165 PD
40 W
1483 2976 PD
40 W
1517 2788 PD
40 W
1543 2563 PD
40 W
1551 2681 PD
40 W
1560 2790 PD
40 W
1577 2496 PD
40 W
1585 2525 PD
40 W
1611 2400 PD
40 W
1636 2151 PD
40 W
1645 2312 PD
40 W
1670 2129 PD
40 W
1704 1939 PD
40 W
1755 1488 PD
40 W
1772 1613 PD
40 W
1780 1567 PD
40 W
1797 1580 PD
40 W
1806 1470 PD
40 W
1814 1432 PD
40 W
1823 1398 PD
40 W
3496 2269 PD
40 W
3513 2310 PD
40 W
3530 2292 PD
40 W
3563 2456 PD
40 W
3572 2466 PD
40 W
3580 2462 PD
40 W
3589 2620 PD
40 W
3597 2444 PD
40 W
3614 2633 PD
40 W
3657 2631 PD
40 W
3699 2769 PD
40 W
3716 2671 PD
40 W
3725 2672 PD
40 W
3733 2570 PD
40 W
3759 2607 PD
40 W
3767 2624 PD
40 W
3793 2512 PD
40 W
3801 2472 PD
40 W
3810 2326 PD
40 W
3818 2368 PD
40 W
3827 2351 PD
40 W
3835 2296 PD
40 W
3852 2196 PD
40 W
3869 2251 PD
40 W
3878 2387 PD
40 W
3886 2172 PD
40 W
3895 2146 PD
40 W
3929 2052 PD
40 W
3937 2037 PD
40 W
3963 1833 PD
40 W
3971 1884 PD
40 W
3988 1777 PD
40 W
3997 1845 PD
40 W
4073 1470 PD
40 W
4098 1432 PD
40 W
4107 1420 PD
40 W
4141 1330 PD
40 W
4183 1325 PD
40 W
4209 1345 PD
40 W
4234 1324 PD
40 W
4251 1299 PD
40 W
4268 1205 PD
40 W
4277 1392 PD
40 W
4294 1312 PD
40 W
4302 1371 PD
40 W
4311 1249 PD
40 W
4319 1360 PD
40 W
4353 1416 PD
40 W
4370 1466 PD
40 W
4387 1516 PD
40 W
4421 1647 PD
40 W
4438 1801 PD
40 W
4455 1930 PD
40 W
4472 2006 PD
40 W
4480 2059 PD
40 W
4489 2137 PD
40 W
4497 2223 PD
40 W
4540 2402 PD
40 W
4548 2540 PD
40 W
4565 2612 PD
40 W
4591 2690 PD
40 W
4642 3248 PD
40 W
4650 3172 PD
40 W
4667 3100 PD
40 W
4676 3328 PD
40 W
4710 3423 PD
40 W
4752 3616 PD
40 W
4769 3711 PD
40 W
4778 3816 PD
40 W
4795 3672 PD
40 W
4888 3861 PD
40 W
4897 3775 PD
40 W
4905 3631 PD
40 W
4930 3553 PD
40 W
4947 3553 PD
40 W
4964 3688 PD
40 W
4998 3483 PD
40 W
5007 3388 PD
40 W
5024 3488 PD
40 W
5032 3308 PD
40 W
5058 3300 PD
40 W
5075 3218 PD
40 W
5092 3153 PD
40 W
5126 3107 PD
40 W
5134 2920 PD
40 W
5143 2948 PD
40 W
5151 3016 PD
40 W
5160 2962 PD
40 W
5168 2903 PD
40 W
5211 2669 PD
40 W
5236 2561 PD
40 W
5262 2585 PD
40 W
5270 2663 PD
40 W
5304 2447 PD
40 W
5313 2350 PD
40 W
5347 2117 PD
40 W
5389 2050 PD
40 W
5406 1899 PD
40 W
5414 1899 PD
40 W
5448 1600 PD
40 W
5474 1735 PD
40 W
5491 1753 PD
40 W
5499 1674 PD
40 W
5576 1781 PD
40 W
5584 1789 PD
40 W
5593 1733 PD
40 W
5635 1822 PD
40 W
5652 1819 PD
40 W
5661 1900 PD
40 W
5669 1993 PD
gs 899 389 5357 4227 MR c np
24 w
gr

24 w
2179 4121 mt 2263 4205 L
2263 4121 mt 2179 4205 L
gs 899 389 5357 4227 MR c np
gr

 995 4121 mt 1079 4205 L
1079 4121 mt  995 4205 L
gs 899 389 5357 4227 MR c np
gr

1880 4121 mt 1964 4205 L
1964 4121 mt 1880 4205 L
gs 899 389 5357 4227 MR c np
gr

2174 4121 mt 2258 4205 L
2258 4121 mt 2174 4205 L
gs 899 389 5357 4227 MR c np
gr

1878 4121 mt 1962 4205 L
1962 4121 mt 1878 4205 L
gs 899 389 5357 4227 MR c np
gr

2187 4121 mt 2271 4205 L
2271 4121 mt 2187 4205 L
gs 899 389 5357 4227 MR c np
gr

2262 4121 mt 2346 4205 L
2346 4121 mt 2262 4205 L
gs 899 389 5357 4227 MR c np
gr

2304 4121 mt 2388 4205 L
2388 4121 mt 2304 4205 L
gs 899 389 5357 4227 MR c np
gr

4332 4121 mt 4416 4205 L
4416 4121 mt 4332 4205 L
gs 899 389 5357 4227 MR c np
gr

3100 4121 mt 3184 4205 L
3184 4121 mt 3100 4205 L
gs 899 389 5357 4227 MR c np
gr

2744 4121 mt 2828 4205 L
2828 4121 mt 2744 4205 L
gs 899 389 5357 4227 MR c np
gr

3959 4121 mt 4043 4205 L
4043 4121 mt 3959 4205 L
gs 899 389 5357 4227 MR c np
gr

3717 4121 mt 3801 4205 L
3801 4121 mt 3717 4205 L
gs 899 389 5357 4227 MR c np
gr

2903 4121 mt 2987 4205 L
2987 4121 mt 2903 4205 L
gs 899 389 5357 4227 MR c np
gr

2331 4121 mt 2415 4205 L
2415 4121 mt 2331 4205 L
gs 899 389 5357 4227 MR c np
gr

4539 4121 mt 4623 4205 L
4623 4121 mt 4539 4205 L
gs 899 389 5357 4227 MR c np
gr

4539 4121 mt 4623 4205 L
4623 4121 mt 4539 4205 L
gs 899 389 5357 4227 MR c np
gr

4539 4121 mt 4623 4205 L
4623 4121 mt 4539 4205 L
gs 899 389 5357 4227 MR c np
gr

3332 4121 mt 3416 4205 L
3416 4121 mt 3332 4205 L
gs 899 389 5357 4227 MR c np
gr

4824 4121 mt 4908 4205 L
4908 4121 mt 4824 4205 L
gs 899 389 5357 4227 MR c np
gr

5425 4121 mt 5509 4205 L
5509 4121 mt 5425 4205 L
gs 899 389 5357 4227 MR c np
gr

3778 4121 mt 3862 4205 L
3862 4121 mt 3778 4205 L
gs 899 389 5357 4227 MR c np
gr

4540 4121 mt 4624 4205 L
4624 4121 mt 4540 4205 L
gs 899 389 5357 4227 MR c np
gr

4539 4121 mt 4623 4205 L
4623 4121 mt 4539 4205 L
gs 899 389 5357 4227 MR c np
gr

5110 4121 mt 5194 4205 L
5194 4121 mt 5110 4205 L
gs 899 389 5357 4227 MR c np
gr

5110 4121 mt 5194 4205 L
5194 4121 mt 5110 4205 L
gs 899 389 5357 4227 MR c np
gr

5211 4121 mt 5295 4205 L
5295 4121 mt 5211 4205 L
gs 899 389 5357 4227 MR c np
gr

5343 4121 mt 5427 4205 L
5427 4121 mt 5343 4205 L
gs 899 389 5357 4227 MR c np
gr

6124 4121 mt 6208 4205 L
6208 4121 mt 6124 4205 L
gs 899 389 5357 4227 MR c np
6 w
gr

6 w

end %%Color Dict

eplot
%%EndObject

epage
end

showpage

%%Trailer
%%EOF
