Covariance functions: users=covNNone, items=covNNard
Ntrain = 10, Mtrain = 10
Training pairs / All pairs = 0.50
Evaluation: topk = 0.5
==============================================
RUN 1
==============================================
mean error: 0.1552
errors for each test user:
0.1667 0.2353 0.1250 0.2632 0.1579 0.1875 0.1765 0.0000 0.1176 0.1111 
==============================================
RUN 2
==============================================
mean error: 0.1061
errors for each test user:
0.1111 0.1765 0.1111 0.1053 0.0667 0.0556 0.1579 0.1000 0.0556 0.1176 
==============================================
RUN 3
==============================================
mean error: 0.1193
errors for each test user:
0.0556 0.2105 0.0625 0.0667 0.1111 0.3500 0.0000 0.0000 0.2500 0.0000 
==============================================
RUN 4
==============================================
mean error: 0.1751
errors for each test user:
0.1176 0.0588 0.1875 0.3000 0.2941 0.1111 0.3333 0.0000 0.1500 0.1667 
==============================================
RUN 5
==============================================
mean error: 0.1798
errors for each test user:
0.0556 0.1053 0.3889 0.1667 0.2222 0.0000 0.1875 0.3500 0.1111 0.2000 
==============================================
RUN 6
==============================================
mean error: 0.1782
errors for each test user:
0.0667 0.2105 0.0588 0.2500 0.1053 0.2778 0.1176 0.1250 0.2778 0.2632 
==============================================
RUN 7
==============================================
mean error: 0.2528
errors for each test user:
0.7222 0.2778 0.2500 0.1111 0.3889 0.2105 0.1176 0.1500 0.0588 0.2353 
==============================================
RUN 8
==============================================
mean error: 0.2743
errors for each test user:
0.1176 0.4706 0.1875 0.1250 0.2000 0.2500 0.3000 0.5263 0.2941 0.2222 
==============================================
RUN 9
==============================================
mean error: 0.1953
errors for each test user:
0.2632 0.1111 0.0000 0.2941 0.3529 0.2941 0.4118 0.0000 0.1250 0.0625 
==============================================
RUN 10
==============================================
mean error: 0.1183
errors for each test user:
0.1250 0.0588 0.0667 0.1176 0.1111 0.2353 0.2105 0.0625 0.0556 0.1250 

Iterations without error: 10
ERROR: AVG = 0.1754, STD = 0.0556
