Covariance functions: users=covSEard, items=covNNone
Ntrain = 10, Mtrain = 30
Training pairs / All pairs = 0.50
Evaluation: topk = 0.5
==============================================
RUN 1
==============================================
mean error: 0.1187
errors for each test user:
0.0526 0.2667 0.0000 0.3333 0.0476 0.0000 0.0000 0.0526 0.1765 0.1053 0.0625 0.2353 0.6667 0.0556 0.0526 0.0556 0.0000 0.0556 0.1000 0.2941 0.0000 0.1111 0.3500 0.0625 0.1176 0.0556 0.0556 0.1053 0.1579 0.0000 
==============================================
RUN 2
==============================================
mean error: 0.2212
errors for each test user:
0.1053 0.1176 0.2778 0.1111 0.3333 0.0000 0.2632 0.2222 0.0500 0.2941 0.4444 0.4444 0.2778 0.2500 0.0588 0.0625 0.2500 0.2000 0.1176 0.1176 0.3889 0.1500 0.3000 0.2222 0.0952 0.1667 0.2273 0.3000 0.3333 0.4211 
==============================================
RUN 3
==============================================
mean error: 0.1977
errors for each test user:
0.0000 0.0556 0.0625 0.3500 0.1905 0.0556 0.0000 0.0556 0.4444 0.0625 0.2353 0.0000 0.2632 0.3333 0.2222 0.0556 0.2000 0.3333 0.4706 0.1111 0.0000 0.3684 0.5882 0.2500 0.0588 0.5333 0.1053 0.4000 0.0625 0.1053 
==============================================
RUN 4
==============================================
mean error: 0.1596
errors for each test user:
0.1111 0.0000 0.2778 0.1579 0.1667 0.1765 0.2105 0.2222 0.0526 0.1875 0.2500 0.3333 0.1765 0.1176 0.1111 0.0556 0.0952 0.0588 0.0667 0.2381 0.1875 0.0500 0.1500 0.3684 0.1053 0.1875 0.2500 0.0000 0.1500 0.2941 
==============================================
RUN 5
==============================================
mean error: 0.1939
errors for each test user:
0.1111 0.0667 0.3333 0.1875 0.1667 0.1111 0.0625 0.1765 0.2778 0.3125 0.1667 0.4500 0.2941 0.1500 0.0588 0.2667 0.1875 0.3158 0.2500 0.3333 0.1875 0.1053 0.0667 0.0000 0.2105 0.1765 0.2353 0.1667 0.2353 0.1111 
==============================================
RUN 6
==============================================
mean error: 0.1490
errors for each test user:
0.0556 0.3889 0.3158 0.0556 0.2353 0.1250 0.0588 0.2105 0.1765 0.0500 0.0000 0.0588 0.1111 0.1111 0.0556 0.0476 0.1176 0.1765 0.4211 0.1875 0.1053 0.2222 0.1667 0.0625 0.1905 0.2941 0.0588 0.3529 0.0000 0.0556 
==============================================
RUN 7
==============================================
mean error: 0.1410
errors for each test user:
0.2105 0.0588 0.1875 0.2000 0.3684 0.0000 0.0000 0.1053 0.0556 0.2222 0.1875 0.2105 0.0526 0.2222 0.1111 0.4118 0.0000 0.0000 0.1875 0.2222 0.0526 0.0625 0.1111 0.1667 0.2222 0.1667 0.1176 0.0000 0.1667 0.1765 
==============================================
RUN 8
==============================================
mean error: 0.2895
errors for each test user:
0.4444 0.5263 0.2941 0.0526 0.1765 0.3333 0.3125 0.5000 0.3684 0.5000 0.2381 0.0588 0.0625 0.1333 0.4375 0.2353 0.1875 0.0526 0.3333 0.0000 0.1765 0.4211 0.3889 0.3889 0.4118 0.2632 0.2353 0.2000 0.2778 0.5238 
==============================================
RUN 9
==============================================
mean error: 0.2164
errors for each test user:
0.1176 0.1111 0.4286 0.2353 0.2632 0.2941 0.2778 0.2632 0.2500 0.0952 0.1111 0.2105 0.2105 0.1765 0.0556 0.1667 0.1176 0.3000 0.4375 0.2500 0.2353 0.0625 0.4211 0.2222 0.0625 0.1250 0.1765 0.2941 0.0526 0.4000 
==============================================
RUN 10
==============================================
mean error: 0.2007
errors for each test user:
0.1176 0.2222 0.2381 0.2857 0.2353 0.1818 0.2222 0.2353 0.2941 0.0000 0.1176 0.1667 0.3750 0.1111 0.1176 0.3333 0.2222 0.2632 0.2941 0.1667 0.0588 0.0588 0.1250 0.2941 0.0526 0.3125 0.1667 0.4211 0.1579 0.1765 

Iterations without error: 10
ERROR: AVG = 0.1888, STD = 0.0493
