Covariance functions: users=covSEard, items=covSEard
Ntrain = 10, Mtrain = 10
Evaluation: topk = 0.5
==============================================
RUN 1
==============================================
mean error: 0.2229
errors for each test user:
0.1667 0.5263 0.0625 0.3158 0.0000 0.1875 0.1765 0.1250 0.1176 0.5000 
==============================================
RUN 2
==============================================
mean error: 0.1130
errors for each test user:
0.1667 0.2353 0.1667 0.1579 0.0000 0.0000 0.1579 0.0526 0.1111 0.0625 
==============================================
RUN 3
==============================================
mean error: 0.1453
errors for each test user:
0.0556 0.2222 0.0000 0.0000 0.1875 0.4737 0.0526 0.0000 0.2000 0.1667 
==============================================
RUN 4
==============================================
mean error: 0.1823
errors for each test user:
0.0556 0.1053 0.1875 0.3000 0.2941 0.1579 0.3333 0.1111 0.0556 0.2222 
==============================================
RUN 5
==============================================
mean error: 0.1271
errors for each test user:
0.0000 0.1579 0.1176 0.0556 0.2105 0.0556 0.0588 0.1053 0.2222 0.2778 
==============================================
RUN 6
==============================================
mean error: 0.1353
errors for each test user:
0.0667 0.0000 0.0000 0.3125 0.1579 0.1667 0.1765 0.1250 0.0625 0.2632 
==============================================
RUN 7
==============================================
mean error: 0.2045
errors for each test user:
0.5556 0.3889 0.3125 0.0000 0.2632 0.0000 0.0667 0.1000 0.0588 0.2941 
==============================================
RUN 8
==============================================
mean error: 0.2514
errors for each test user:
0.1176 0.2500 0.1875 0.0625 0.2941 0.3158 0.3000 0.5000 0.2778 0.1667 
==============================================
RUN 9
==============================================
mean error: 0.1657
errors for each test user:
0.0526 0.4737 0.0000 0.1250 0.3529 0.1765 0.1765 0.0588 0.1250 0.0625 
==============================================
RUN 10
==============================================
mean error: 0.1138
errors for each test user:
0.1250 0.0588 0.0667 0.0000 0.2222 0.2941 0.2222 0.0000 0.1111 0.0000 

Iterations without error: 10
ERROR: AVG = 0.1661, STD = 0.0480
